[2018-06-03T02:19:14.848+0700][gc,heap       ] GC(88) Survivor regions: 3->3(12)
[2018-06-03T02:19:14.848+0700][gc,heap       ] GC(88) Old regions: 46->46
[2018-06-03T02:19:14.848+0700][gc,heap       ] GC(88) Humongous regions: 130->130
[2018-06-03T02:19:14.848+0700][gc,metaspace  ] GC(88) Metaspace: 35490K->35490K(1081344K)
[2018-06-03T02:19:14.848+0700][gc            ] GC(88) Pause Young (G1 Evacuation Pause) 268M->178M(1024M) 15.541ms
[2018-06-03T02:19:14.848+0700][gc,cpu        ] GC(88) User=0.03s Sys=0.00s Real=0.01s
[2018-06-03T02:19:36.365+0700][gc,start      ] GC(89) Pause Young (G1 Evacuation Pause)
[2018-06-03T02:19:36.365+0700][gc,task       ] GC(89) Using 4 workers of 4 for evacuation
[2018-06-03T02:19:36.378+0700][gc,phases     ] GC(89)   Pre Evacuate Collection Set: 0.0ms
[2018-06-03T02:19:36.378+0700][gc,phases     ] GC(89)   Evacuate Collection Set: 12.4ms
[2018-06-03T02:19:36.378+0700][gc,phases     ] GC(89)   Post Evacuate Collection Set: 0.3ms
[2018-06-03T02:19:36.378+0700][gc,phases     ] GC(89)   Other: 0.2ms
[2018-06-03T02:19:36.378+0700][gc,heap       ] GC(89) Eden regions: 94->0(96)
[2018-06-03T02:19:36.378+0700][gc,heap       ] GC(89) Survivor regions: 3->2(13)
[2018-06-03T02:19:36.378+0700][gc,heap       ] GC(89) Old regions: 46->47
[2018-06-03T02:19:36.378+0700][gc,heap       ] GC(89) Humongous regions: 130->130
[2018-06-03T02:19:36.378+0700][gc,metaspace  ] GC(89) Metaspace: 35490K->35490K(1081344K)
[2018-06-03T02:19:36.378+0700][gc            ] GC(89) Pause Young (G1 Evacuation Pause) 272M->178M(1024M) 13.217ms
[2018-06-03T02:19:36.378+0700][gc,cpu        ] GC(89) User=0.03s Sys=0.00s Real=0.01s
[2018-06-03T02:20:00.698+0700][gc,start      ] GC(90) Pause Young (G1 Evacuation Pause)
[2018-06-03T02:20:00.698+0700][gc,task       ] GC(90) Using 4 workers of 4 for evacuation
[2018-06-03T02:20:00.705+0700][gc,phases     ] GC(90)   Pre Evacuate Collection Set: 0.0ms
[2018-06-03T02:20:00.705+0700][gc,phases     ] GC(90)   Evacuate Collection Set: 6.4ms
[2018-06-03T02:20:00.705+0700][gc,phases     ] GC(90)   Post Evacuate Collection Set: 0.3ms
[2018-06-03T02:20:00.705+0700][gc,phases     ] GC(90)   Other: 0.2ms
[2018-06-03T02:20:00.705+0700][gc,heap       ] GC(90) Eden regions: 96->0(99)
[2018-06-03T02:20:00.705+0700][gc,heap       ] GC(90) Survivor regions: 2->3(13)
[2018-06-03T02:20:00.705+0700][gc,heap       ] GC(90) Old regions: 47->47
[2018-06-03T02:20:00.705+0700][gc,heap       ] GC(90) Humongous regions: 130->130
[2018-06-03T02:20:00.705+0700][gc,metaspace  ] GC(90) Metaspace: 35490K->35490K(1081344K)
[2018-06-03T02:20:00.705+0700][gc            ] GC(90) Pause Young (G1 Evacuation Pause) 274M->178M(1024M) 7.387ms
[2018-06-03T02:20:00.705+0700][gc,cpu        ] GC(90) User=0.02s Sys=0.00s Real=0.01s
[2018-06-03T02:20:24.609+0700][gc,start      ] GC(91) Pause Young (G1 Evacuation Pause)
[2018-06-03T02:20:24.609+0700][gc,task       ] GC(91) Using 4 workers of 4 for evacuation
[2018-06-03T02:20:24.616+0700][gc,phases     ] GC(91)   Pre Evacuate Collection Set: 0.0ms
[2018-06-03T02:20:24.616+0700][gc,phases     ] GC(91)   Evacuate Collection Set: 6.4ms
[2018-06-03T02:20:24.616+0700][gc,phases     ] GC(91)   Post Evacuate Collection Set: 0.2ms
[2018-06-03T02:20:24.616+0700][gc,phases     ] GC(91)   Other: 0.3ms
[2018-06-03T02:20:24.616+0700][gc,heap       ] GC(91) Eden regions: 99->0(106)
[2018-06-03T02:20:24.616+0700][gc,heap       ] GC(91) Survivor regions: 3->4(13)
[2018-06-03T02:20:24.616+0700][gc,heap       ] GC(91) Old regions: 47->47
[2018-06-03T02:20:24.616+0700][gc,heap       ] GC(91) Humongous regions: 130->130
[2018-06-03T02:20:24.616+0700][gc,metaspace  ] GC(91) Metaspace: 35490K->35490K(1081344K)
[2018-06-03T02:20:24.616+0700][gc            ] GC(91) Pause Young (G1 Evacuation Pause) 277M->179M(1024M) 7.050ms
[2018-06-03T02:20:24.616+0700][gc,cpu        ] GC(91) User=0.02s Sys=0.00s Real=0.01s
[2018-06-03T02:26:47.283+0700][gc,start      ] GC(92) Pause Young (G1 Evacuation Pause)
[2018-06-03T02:26:47.285+0700][gc,task       ] GC(92) Using 4 workers of 4 for evacuation
[2018-06-03T02:26:47.325+0700][gc,mmu        ] GC(92) MMU target violated: 21.0ms (20.0ms/21.0ms)
[2018-06-03T02:26:47.325+0700][gc,phases     ] GC(92)   Pre Evacuate Collection Set: 1.6ms
[2018-06-03T02:26:47.325+0700][gc,phases     ] GC(92)   Evacuate Collection Set: 37.4ms
[2018-06-03T02:26:47.325+0700][gc,phases     ] GC(92)   Post Evacuate Collection Set: 0.4ms
[2018-06-03T02:26:47.325+0700][gc,phases     ] GC(92)   Other: 2.7ms
[2018-06-03T02:26:47.325+0700][gc,heap       ] GC(92) Eden regions: 106->0(76)
[2018-06-03T02:26:47.325+0700][gc,heap       ] GC(92) Survivor regions: 4->6(14)
[2018-06-03T02:26:47.325+0700][gc,heap       ] GC(92) Old regions: 47->47
[2018-06-03T02:26:47.325+0700][gc,heap       ] GC(92) Humongous regions: 130->130
[2018-06-03T02:26:47.325+0700][gc,metaspace  ] GC(92) Metaspace: 35546K->35546K(1081344K)
[2018-06-03T02:26:47.325+0700][gc            ] GC(92) Pause Young (G1 Evacuation Pause) 285M->182M(1024M) 42.140ms
[2018-06-03T02:26:47.325+0700][gc,cpu        ] GC(92) User=0.05s Sys=0.06s Real=0.04s
[2018-06-03T02:27:05.374+0700][gc,start      ] GC(93) Pause Young (G1 Evacuation Pause)
[2018-06-03T02:27:05.379+0700][gc,task       ] GC(93) Using 4 workers of 4 for evacuation
[2018-06-03T02:27:05.395+0700][gc,phases     ] GC(93)   Pre Evacuate Collection Set: 0.1ms
[2018-06-03T02:27:05.395+0700][gc,phases     ] GC(93)   Evacuate Collection Set: 14.8ms
[2018-06-03T02:27:05.395+0700][gc,phases     ] GC(93)   Post Evacuate Collection Set: 0.3ms
[2018-06-03T02:27:05.395+0700][gc,phases     ] GC(93)   Other: 5.2ms
[2018-06-03T02:27:05.395+0700][gc,heap       ] GC(93) Eden regions: 76->0(46)
[2018-06-03T02:27:05.395+0700][gc,heap       ] GC(93) Survivor regions: 6->8(11)
[2018-06-03T02:27:05.395+0700][gc,heap       ] GC(93) Old regions: 47->47
[2018-06-03T02:27:05.395+0700][gc,heap       ] GC(93) Humongous regions: 130->130
[2018-06-03T02:27:05.395+0700][gc,metaspace  ] GC(93) Metaspace: 35551K->35551K(1081344K)
[2018-06-03T02:27:05.395+0700][gc            ] GC(93) Pause Young (G1 Evacuation Pause) 258M->184M(1024M) 20.603ms
[2018-06-03T02:27:05.395+0700][gc,cpu        ] GC(93) User=0.05s Sys=0.00s Real=0.02s
[2018-06-03T02:27:15.606+0700][gc,start      ] GC(94) Pause Young (G1 Evacuation Pause)
[2018-06-03T02:27:15.607+0700][gc,task       ] GC(94) Using 4 workers of 4 for evacuation
[2018-06-03T02:27:15.641+0700][gc,mmu        ] GC(94) MMU target violated: 21.0ms (20.0ms/21.0ms)
[2018-06-03T02:27:15.641+0700][gc,phases     ] GC(94)   Pre Evacuate Collection Set: 0.1ms
[2018-06-03T02:27:15.641+0700][gc,phases     ] GC(94)   Evacuate Collection Set: 32.8ms
[2018-06-03T02:27:15.641+0700][gc,phases     ] GC(94)   Post Evacuate Collection Set: 0.2ms
[2018-06-03T02:27:15.641+0700][gc,phases     ] GC(94)   Other: 2.3ms
[2018-06-03T02:27:15.641+0700][gc,heap       ] GC(94) Eden regions: 46->0(46)
[2018-06-03T02:27:15.641+0700][gc,heap       ] GC(94) Survivor regions: 8->5(7)
[2018-06-03T02:27:15.641+0700][gc,heap       ] GC(94) Old regions: 47->52
[2018-06-03T02:27:15.641+0700][gc,heap       ] GC(94) Humongous regions: 130->130
[2018-06-03T02:27:15.641+0700][gc,metaspace  ] GC(94) Metaspace: 35551K->35551K(1081344K)
[2018-06-03T02:27:15.641+0700][gc            ] GC(94) Pause Young (G1 Evacuation Pause) 230M->186M(1024M) 35.490ms
[2018-06-03T02:27:15.641+0700][gc,cpu        ] GC(94) User=0.05s Sys=0.01s Real=0.04s
[2018-06-03T02:27:27.212+0700][gc,start      ] GC(95) Pause Young (G1 Evacuation Pause)
[2018-06-03T02:27:27.215+0700][gc,task       ] GC(95) Using 4 workers of 4 for evacuation
[2018-06-03T02:27:27.227+0700][gc,phases     ] GC(95)   Pre Evacuate Collection Set: 0.0ms
[2018-06-03T02:27:27.227+0700][gc,phases     ] GC(95)   Evacuate Collection Set: 11.8ms
[2018-06-03T02:27:27.227+0700][gc,phases     ] GC(95)   Post Evacuate Collection Set: 0.3ms
[2018-06-03T02:27:27.227+0700][gc,phases     ] GC(95)   Other: 3.3ms
[2018-06-03T02:27:27.227+0700][gc,heap       ] GC(95) Eden regions: 46->0(53)
[2018-06-03T02:27:27.227+0700][gc,heap       ] GC(95) Survivor regions: 5->3(7)
[2018-06-03T02:27:27.227+0700][gc,heap       ] GC(95) Old regions: 52->55
[2018-06-03T02:27:27.227+0700][gc,heap       ] GC(95) Humongous regions: 130->130
[2018-06-03T02:27:27.227+0700][gc,metaspace  ] GC(95) Metaspace: 35551K->35551K(1081344K)
[2018-06-03T02:27:27.227+0700][gc            ] GC(95) Pause Young (G1 Evacuation Pause) 232M->186M(1024M) 15.671ms
[2018-06-03T02:27:27.227+0700][gc,cpu        ] GC(95) User=0.04s Sys=0.01s Real=0.01s
[2018-06-03T02:27:39.079+0700][gc,start      ] GC(96) Pause Young (G1 Evacuation Pause)
[2018-06-03T02:27:39.079+0700][gc,task       ] GC(96) Using 4 workers of 4 for evacuation
[2018-06-03T02:27:39.093+0700][gc,phases     ] GC(96)   Pre Evacuate Collection Set: 0.0ms
[2018-06-03T02:27:39.093+0700][gc,phases     ] GC(96)   Evacuate Collection Set: 13.0ms
[2018-06-03T02:27:39.093+0700][gc,phases     ] GC(96)   Post Evacuate Collection Set: 0.2ms
[2018-06-03T02:27:39.093+0700][gc,phases     ] GC(96)   Other: 0.3ms
[2018-06-03T02:27:39.093+0700][gc,heap       ] GC(96) Eden regions: 49->0(55)
[2018-06-03T02:27:39.093+0700][gc,heap       ] GC(96) Survivor regions: 3->3(7)
[2018-06-03T02:27:39.093+0700][gc,heap       ] GC(96) Old regions: 55->55
[2018-06-03T02:27:39.093+0700][gc,heap       ] GC(96) Humongous regions: 130->130
[2018-06-03T02:27:39.093+0700][gc,metaspace  ] GC(96) Metaspace: 35551K->35551K(1081344K)
[2018-06-03T02:27:39.093+0700][gc            ] GC(96) Pause Young (G1 Evacuation Pause) 235M->187M(1024M) 13.720ms
[2018-06-03T02:27:39.093+0700][gc,cpu        ] GC(96) User=0.04s Sys=0.00s Real=0.02s
[2018-06-03T02:27:51.475+0700][gc,start      ] GC(97) Pause Young (G1 Evacuation Pause)
[2018-06-03T02:27:51.477+0700][gc,task       ] GC(97) Using 4 workers of 4 for evacuation
[2018-06-03T02:27:51.486+0700][gc,phases     ] GC(97)   Pre Evacuate Collection Set: 0.0ms
[2018-06-03T02:27:51.486+0700][gc,phases     ] GC(97)   Evacuate Collection Set: 7.9ms
[2018-06-03T02:27:51.486+0700][gc,phases     ] GC(97)   Post Evacuate Collection Set: 0.3ms
[2018-06-03T02:27:51.486+0700][gc,phases     ] GC(97)   Other: 2.1ms
[2018-06-03T02:27:51.486+0700][gc,heap       ] GC(97) Eden regions: 55->0(58)
[2018-06-03T02:27:51.486+0700][gc,heap       ] GC(97) Survivor regions: 3->4(8)
[2018-06-03T02:27:51.486+0700][gc,heap       ] GC(97) Old regions: 55->55
[2018-06-03T02:27:51.486+0700][gc,heap       ] GC(97) Humongous regions: 130->130
[2018-06-03T02:27:51.486+0700][gc,metaspace  ] GC(97) Metaspace: 35551K->35551K(1081344K)
[2018-06-03T02:27:51.486+0700][gc            ] GC(97) Pause Young (G1 Evacuation Pause) 242M->188M(1024M) 10.441ms
[2018-06-03T02:27:51.486+0700][gc,cpu        ] GC(97) User=0.03s Sys=0.00s Real=0.01s
[2018-06-03T02:28:05.228+0700][gc,start      ] GC(98) Pause Young (G1 Evacuation Pause)
[2018-06-03T02:28:05.228+0700][gc,task       ] GC(98) Using 4 workers of 4 for evacuation
[2018-06-03T02:28:05.240+0700][gc,phases     ] GC(98)   Pre Evacuate Collection Set: 0.0ms
[2018-06-03T02:28:05.240+0700][gc,phases     ] GC(98)   Evacuate Collection Set: 11.8ms
[2018-06-03T02:28:05.240+0700][gc,phases     ] GC(98)   Post Evacuate Collection Set: 0.2ms
[2018-06-03T02:28:05.240+0700][gc,phases     ] GC(98)   Other: 0.2ms
[2018-06-03T02:28:05.240+0700][gc,heap       ] GC(98) Eden regions: 58->0(61)
[2018-06-03T02:28:05.240+0700][gc,heap       ] GC(98) Survivor regions: 4->5(8)
[2018-06-03T02:28:05.240+0700][gc,heap       ] GC(98) Old regions: 55->55
[2018-06-03T02:28:05.240+0700][gc,heap       ] GC(98) Humongous regions: 130->130
[2018-06-03T02:28:05.240+0700][gc,metaspace  ] GC(98) Metaspace: 35551K->35551K(1081344K)
[2018-06-03T02:28:05.240+0700][gc            ] GC(98) Pause Young (G1 Evacuation Pause) 246M->188M(1024M) 12.418ms
[2018-06-03T02:28:05.240+0700][gc,cpu        ] GC(98) User=0.04s Sys=0.00s Real=0.02s
[2018-06-03T02:28:19.725+0700][gc,start      ] GC(99) Pause Young (G1 Evacuation Pause)
[2018-06-03T02:28:19.725+0700][gc,task       ] GC(99) Using 4 workers of 4 for evacuation
[2018-06-03T02:28:19.739+0700][gc,phases     ] GC(99)   Pre Evacuate Collection Set: 0.0ms
[2018-06-03T02:28:19.739+0700][gc,phases     ] GC(99)   Evacuate Collection Set: 13.2ms
[2018-06-03T02:28:19.739+0700][gc,phases     ] GC(99)   Post Evacuate Collection Set: 0.3ms
[2018-06-03T02:28:19.739+0700][gc,phases     ] GC(99)   Other: 0.3ms
[2018-06-03T02:28:19.739+0700][gc,heap       ] GC(99) Eden regions: 61->0(61)
[2018-06-03T02:28:19.739+0700][gc,heap       ] GC(99) Survivor regions: 5->5(9)
[2018-06-03T02:28:19.739+0700][gc,heap       ] GC(99) Old regions: 55->55
[2018-06-03T02:28:19.739+0700][gc,heap       ] GC(99) Humongous regions: 130->130
[2018-06-03T02:28:19.739+0700][gc,metaspace  ] GC(99) Metaspace: 35551K->35551K(1081344K)
[2018-06-03T02:28:19.739+0700][gc            ] GC(99) Pause Young (G1 Evacuation Pause) 249M->189M(1024M) 14.058ms
[2018-06-03T02:28:19.740+0700][gc,cpu        ] GC(99) User=0.04s Sys=0.00s Real=0.01s
[2018-06-03T02:28:35.105+0700][gc,start      ] GC(100) Pause Young (G1 Evacuation Pause)
[2018-06-03T02:28:35.105+0700][gc,task       ] GC(100) Using 4 workers of 4 for evacuation
[2018-06-03T02:28:35.116+0700][gc,phases     ] GC(100)   Pre Evacuate Collection Set: 0.0ms
[2018-06-03T02:28:35.116+0700][gc,phases     ] GC(100)   Evacuate Collection Set: 9.9ms
[2018-06-03T02:28:35.116+0700][gc,phases     ] GC(100)   Post Evacuate Collection Set: 0.4ms
[2018-06-03T02:28:35.116+0700][gc,phases     ] GC(100)   Other: 0.2ms
[2018-06-03T02:28:35.116+0700][gc,heap       ] GC(100) Eden regions: 61->0(65)
[2018-06-03T02:28:35.116+0700][gc,heap       ] GC(100) Survivor regions: 5->6(9)
[2018-06-03T02:28:35.116+0700][gc,heap       ] GC(100) Old regions: 55->55
[2018-06-03T02:28:35.116+0700][gc,heap       ] GC(100) Humongous regions: 130->130
[2018-06-03T02:28:35.116+0700][gc,metaspace  ] GC(100) Metaspace: 35551K->35551K(1081344K)
[2018-06-03T02:28:35.116+0700][gc            ] GC(100) Pause Young (G1 Evacuation Pause) 250M->190M(1024M) 10.834ms
[2018-06-03T02:28:35.116+0700][gc,cpu        ] GC(100) User=0.03s Sys=0.00s Real=0.01s
[2018-06-03T02:28:49.762+0700][gc,start      ] GC(101) Pause Young (G1 Evacuation Pause)
[2018-06-03T02:28:49.763+0700][gc,task       ] GC(101) Using 4 workers of 4 for evacuation
[2018-06-03T02:28:49.781+0700][gc,phases     ] GC(101)   Pre Evacuate Collection Set: 0.0ms
[2018-06-03T02:28:49.781+0700][gc,phases     ] GC(101)   Evacuate Collection Set: 17.0ms
[2018-06-03T02:28:49.781+0700][gc,phases     ] GC(101)   Post Evacuate Collection Set: 0.3ms
[2018-06-03T02:28:49.781+0700][gc,phases     ] GC(101)   Other: 2.2ms
[2018-06-03T02:28:49.781+0700][gc,heap       ] GC(101) Eden regions: 65->0(63)
[2018-06-03T02:28:49.781+0700][gc,heap       ] GC(101) Survivor regions: 6->5(9)
[2018-06-03T02:28:49.781+0700][gc,heap       ] GC(101) Old regions: 55->56
[2018-06-03T02:28:49.781+0700][gc,heap       ] GC(101) Humongous regions: 130->130
[2018-06-03T02:28:49.781+0700][gc,metaspace  ] GC(101) Metaspace: 35551K->35551K(1081344K)
[2018-06-03T02:28:49.781+0700][gc            ] GC(101) Pause Young (G1 Evacuation Pause) 255M->190M(1024M) 19.719ms
[2018-06-03T02:28:49.781+0700][gc,cpu        ] GC(101) User=0.07s Sys=0.01s Real=0.02s
[2018-06-03T02:29:04.929+0700][gc,start      ] GC(102) Pause Young (G1 Evacuation Pause)
[2018-06-03T02:29:04.931+0700][gc,task       ] GC(102) Using 4 workers of 4 for evacuation
[2018-06-03T02:29:04.956+0700][gc,mmu        ] GC(102) MMU target violated: 21.0ms (20.0ms/21.0ms)
[2018-06-03T02:29:04.956+0700][gc,phases     ] GC(102)   Pre Evacuate Collection Set: 0.0ms
[2018-06-03T02:29:04.956+0700][gc,phases     ] GC(102)   Evacuate Collection Set: 24.8ms
[2018-06-03T02:29:04.956+0700][gc,phases     ] GC(102)   Post Evacuate Collection Set: 0.3ms
[2018-06-03T02:29:04.956+0700][gc,phases     ] GC(102)   Other: 2.2ms
[2018-06-03T02:29:04.956+0700][gc,heap       ] GC(102) Eden regions: 60->0(60)
[2018-06-03T02:29:04.956+0700][gc,heap       ] GC(102) Survivor regions: 5->5(9)
[2018-06-03T02:29:04.956+0700][gc,heap       ] GC(102) Old regions: 56->57
[2018-06-03T02:29:04.956+0700][gc,heap       ] GC(102) Humongous regions: 130->130
[2018-06-03T02:29:04.956+0700][gc,metaspace  ] GC(102) Metaspace: 35551K->35551K(1081344K)
[2018-06-03T02:29:04.956+0700][gc            ] GC(102) Pause Young (G1 Evacuation Pause) 250M->191M(1024M) 27.384ms
[2018-06-03T02:29:04.956+0700][gc,cpu        ] GC(102) User=0.05s Sys=0.00s Real=0.03s
[2018-06-03T02:29:17.861+0700][gc,start      ] GC(103) Pause Young (G1 Evacuation Pause)
[2018-06-03T02:29:17.863+0700][gc,task       ] GC(103) Using 4 workers of 4 for evacuation
[2018-06-03T02:29:17.880+0700][gc,phases     ] GC(103)   Pre Evacuate Collection Set: 0.0ms
[2018-06-03T02:29:17.880+0700][gc,phases     ] GC(103)   Evacuate Collection Set: 16.7ms
[2018-06-03T02:29:17.880+0700][gc,phases     ] GC(103)   Post Evacuate Collection Set: 0.3ms
[2018-06-03T02:29:17.880+0700][gc,phases     ] GC(103)   Other: 2.2ms
[2018-06-03T02:29:17.880+0700][gc,heap       ] GC(103) Eden regions: 57->0(60)
[2018-06-03T02:29:17.880+0700][gc,heap       ] GC(103) Survivor regions: 5->5(8)
[2018-06-03T02:29:17.880+0700][gc,heap       ] GC(103) Old regions: 57->58
[2018-06-03T02:29:17.880+0700][gc,heap       ] GC(103) Humongous regions: 130->130
[2018-06-03T02:29:17.880+0700][gc,metaspace  ] GC(103) Metaspace: 35551K->35551K(1081344K)
[2018-06-03T02:29:17.880+0700][gc            ] GC(103) Pause Young (G1 Evacuation Pause) 248M->192M(1024M) 19.605ms
[2018-06-03T02:29:17.880+0700][gc,cpu        ] GC(103) User=0.05s Sys=0.00s Real=0.02s
[2018-06-03T02:29:30.962+0700][gc,start      ] GC(104) Pause Young (G1 Evacuation Pause)
[2018-06-03T02:29:30.965+0700][gc,task       ] GC(104) Using 4 workers of 4 for evacuation
[2018-06-03T02:29:30.988+0700][gc,mmu        ] GC(104) MMU target violated: 21.0ms (20.0ms/21.0ms)
[2018-06-03T02:29:30.989+0700][gc,phases     ] GC(104)   Pre Evacuate Collection Set: 0.1ms
[2018-06-03T02:29:30.989+0700][gc,phases     ] GC(104)   Evacuate Collection Set: 23.2ms
[2018-06-03T02:29:30.989+0700][gc,phases     ] GC(104)   Post Evacuate Collection Set: 0.3ms
[2018-06-03T02:29:30.989+0700][gc,phases     ] GC(104)   Other: 2.6ms
[2018-06-03T02:29:30.989+0700][gc,heap       ] GC(104) Eden regions: 52->0(58)
[2018-06-03T02:29:30.989+0700][gc,heap       ] GC(104) Survivor regions: 5->5(8)
[2018-06-03T02:29:30.989+0700][gc,heap       ] GC(104) Old regions: 58->59
[2018-06-03T02:29:30.989+0700][gc,heap       ] GC(104) Humongous regions: 130->130
[2018-06-03T02:29:30.989+0700][gc,metaspace  ] GC(104) Metaspace: 35551K->35551K(1081344K)
[2018-06-03T02:29:30.989+0700][gc            ] GC(104) Pause Young (G1 Evacuation Pause) 244M->192M(1024M) 26.224ms
[2018-06-03T02:29:30.989+0700][gc,cpu        ] GC(104) User=0.05s Sys=0.00s Real=0.02s
[2018-06-03T02:29:43.166+0700][gc,start      ] GC(105) Pause Young (G1 Evacuation Pause)
[2018-06-03T02:29:43.166+0700][gc,task       ] GC(105) Using 4 workers of 4 for evacuation
[2018-06-03T02:29:43.180+0700][gc,phases     ] GC(105)   Pre Evacuate Collection Set: 0.0ms
[2018-06-03T02:29:43.180+0700][gc,phases     ] GC(105)   Evacuate Collection Set: 13.3ms
[2018-06-03T02:29:43.180+0700][gc,phases     ] GC(105)   Post Evacuate Collection Set: 0.2ms
[2018-06-03T02:29:43.180+0700][gc,phases     ] GC(105)   Other: 0.2ms
[2018-06-03T02:29:43.180+0700][gc,heap       ] GC(105) Eden regions: 52->0(59)
[2018-06-03T02:29:43.180+0700][gc,heap       ] GC(105) Survivor regions: 5->5(8)
[2018-06-03T02:29:43.180+0700][gc,heap       ] GC(105) Old regions: 59->59
[2018-06-03T02:29:43.180+0700][gc,heap       ] GC(105) Humongous regions: 130->130
[2018-06-03T02:29:43.180+0700][gc,metaspace  ] GC(105) Metaspace: 35551K->35551K(1081344K)
[2018-06-03T02:29:43.180+0700][gc            ] GC(105) Pause Young (G1 Evacuation Pause) 244M->193M(1024M) 13.878ms
[2018-06-03T02:29:43.180+0700][gc,cpu        ] GC(105) User=0.05s Sys=0.00s Real=0.02s
[2018-06-03T02:29:55.298+0700][gc,start      ] GC(106) Pause Young (G1 Evacuation Pause)
[2018-06-03T02:29:55.300+0700][gc,task       ] GC(106) Using 4 workers of 4 for evacuation
[2018-06-03T02:29:55.316+0700][gc,phases     ] GC(106)   Pre Evacuate Collection Set: 0.0ms
[2018-06-03T02:29:55.316+0700][gc,phases     ] GC(106)   Evacuate Collection Set: 14.8ms
[2018-06-03T02:29:55.316+0700][gc,phases     ] GC(106)   Post Evacuate Collection Set: 0.4ms
[2018-06-03T02:29:55.316+0700][gc,phases     ] GC(106)   Other: 2.1ms
[2018-06-03T02:29:55.316+0700][gc,heap       ] GC(106) Eden regions: 53->0(59)
[2018-06-03T02:29:55.316+0700][gc,heap       ] GC(106) Survivor regions: 5->5(8)
[2018-06-03T02:29:55.316+0700][gc,heap       ] GC(106) Old regions: 59->59
[2018-06-03T02:29:55.316+0700][gc,heap       ] GC(106) Humongous regions: 130->130
[2018-06-03T02:29:55.316+0700][gc,metaspace  ] GC(106) Metaspace: 35551K->35551K(1081344K)
[2018-06-03T02:29:55.316+0700][gc            ] GC(106) Pause Young (G1 Evacuation Pause) 246M->193M(1024M) 17.620ms
[2018-06-03T02:29:55.316+0700][gc,cpu        ] GC(106) User=0.05s Sys=0.00s Real=0.02s
[2018-06-03T02:30:24.739+0700][gc,start      ] GC(107) Pause Young (G1 Evacuation Pause)
[2018-06-03T02:30:24.739+0700][gc,task       ] GC(107) Using 4 workers of 4 for evacuation
[2018-06-03T02:30:24.758+0700][gc,phases     ] GC(107)   Pre Evacuate Collection Set: 0.0ms
[2018-06-03T02:30:24.758+0700][gc,phases     ] GC(107)   Evacuate Collection Set: 18.6ms
[2018-06-03T02:30:24.758+0700][gc,phases     ] GC(107)   Post Evacuate Collection Set: 0.3ms
[2018-06-03T02:30:24.758+0700][gc,phases     ] GC(107)   Other: 0.4ms
[2018-06-03T02:30:24.758+0700][gc,heap       ] GC(107) Eden regions: 56->0(60)
[2018-06-03T02:30:24.758+0700][gc,heap       ] GC(107) Survivor regions: 5->5(8)
[2018-06-03T02:30:24.758+0700][gc,heap       ] GC(107) Old regions: 59->60
[2018-06-03T02:30:24.758+0700][gc,heap       ] GC(107) Humongous regions: 130->130
[2018-06-03T02:30:24.758+0700][gc,metaspace  ] GC(107) Metaspace: 35603K->35603K(1081344K)
[2018-06-03T02:30:24.758+0700][gc            ] GC(107) Pause Young (G1 Evacuation Pause) 249M->193M(1024M) 19.398ms
[2018-06-03T02:30:24.758+0700][gc,cpu        ] GC(107) User=0.06s Sys=0.00s Real=0.02s
[2018-06-03T02:30:30.087+0700][gc,heap,exit  ] Heap
[2018-06-03T02:30:30.087+0700][gc,heap,exit  ]  garbage-first heap   total 1048576K, used 208672K [0x0000000780000000, 0x0000000780102000, 0x00000007c0000000)
[2018-06-03T02:30:30.087+0700][gc,heap,exit  ]   region size 1024K, 16 young (16384K), 5 survivors (5120K)
[2018-06-03T02:30:30.087+0700][gc,heap,exit  ]  Metaspace       used 36074K, capacity 36462K, committed 37072K, reserved 1081344K
[2018-06-03T02:30:30.087+0700][gc,heap,exit  ]   class space    used 4456K, capacity 4531K, committed 4608K, reserved 1048576K
