[2018-06-03T05:04:41.151+0700][gc,phases     ] GC(422)   Post Evacuate Collection Set: 0.3ms
[2018-06-03T05:04:41.151+0700][gc,phases     ] GC(422)   Other: 2.1ms
[2018-06-03T05:04:41.151+0700][gc,heap       ] GC(422) Eden regions: 48->0(48)
[2018-06-03T05:04:41.151+0700][gc,heap       ] GC(422) Survivor regions: 4->4(7)
[2018-06-03T05:04:41.151+0700][gc,heap       ] GC(422) Old regions: 170->171
[2018-06-03T05:04:41.151+0700][gc,heap       ] GC(422) Humongous regions: 130->130
[2018-06-03T05:04:41.151+0700][gc,metaspace  ] GC(422) Metaspace: 36202K->36202K(1081344K)
[2018-06-03T05:04:41.151+0700][gc            ] GC(422) Pause Young (G1 Evacuation Pause) 351M->304M(1024M) 27.005ms
[2018-06-03T05:04:41.151+0700][gc,cpu        ] GC(422) User=0.05s Sys=0.01s Real=0.03s
[2018-06-03T05:04:52.948+0700][gc,start      ] GC(423) Pause Young (G1 Evacuation Pause)
[2018-06-03T05:04:52.948+0700][gc,task       ] GC(423) Using 4 workers of 4 for evacuation
[2018-06-03T05:04:52.967+0700][gc,phases     ] GC(423)   Pre Evacuate Collection Set: 0.0ms
[2018-06-03T05:04:52.967+0700][gc,phases     ] GC(423)   Evacuate Collection Set: 18.4ms
[2018-06-03T05:04:52.967+0700][gc,phases     ] GC(423)   Post Evacuate Collection Set: 0.3ms
[2018-06-03T05:04:52.967+0700][gc,phases     ] GC(423)   Other: 0.2ms
[2018-06-03T05:04:52.967+0700][gc,heap       ] GC(423) Eden regions: 48->0(49)
[2018-06-03T05:04:52.967+0700][gc,heap       ] GC(423) Survivor regions: 4->5(7)
[2018-06-03T05:04:52.967+0700][gc,heap       ] GC(423) Old regions: 171->171
[2018-06-03T05:04:52.967+0700][gc,heap       ] GC(423) Humongous regions: 130->130
[2018-06-03T05:04:52.967+0700][gc,metaspace  ] GC(423) Metaspace: 36202K->36202K(1081344K)
[2018-06-03T05:04:52.967+0700][gc            ] GC(423) Pause Young (G1 Evacuation Pause) 352M->304M(1024M) 19.206ms
[2018-06-03T05:04:52.967+0700][gc,cpu        ] GC(423) User=0.05s Sys=0.00s Real=0.02s
[2018-06-03T05:05:04.665+0700][gc,start      ] GC(424) Pause Young (G1 Evacuation Pause)
[2018-06-03T05:05:04.665+0700][gc,task       ] GC(424) Using 4 workers of 4 for evacuation
[2018-06-03T05:05:04.678+0700][gc,phases     ] GC(424)   Pre Evacuate Collection Set: 0.0ms
[2018-06-03T05:05:04.678+0700][gc,phases     ] GC(424)   Evacuate Collection Set: 13.0ms
[2018-06-03T05:05:04.678+0700][gc,phases     ] GC(424)   Post Evacuate Collection Set: 0.3ms
[2018-06-03T05:05:04.678+0700][gc,phases     ] GC(424)   Other: 0.2ms
[2018-06-03T05:05:04.678+0700][gc,heap       ] GC(424) Eden regions: 49->0(49)
[2018-06-03T05:05:04.678+0700][gc,heap       ] GC(424) Survivor regions: 5->4(7)
[2018-06-03T05:05:04.679+0700][gc,heap       ] GC(424) Old regions: 171->171
[2018-06-03T05:05:04.679+0700][gc,heap       ] GC(424) Humongous regions: 130->130
[2018-06-03T05:05:04.679+0700][gc,metaspace  ] GC(424) Metaspace: 36202K->36202K(1081344K)
[2018-06-03T05:05:04.679+0700][gc            ] GC(424) Pause Young (G1 Evacuation Pause) 353M->304M(1024M) 13.653ms
[2018-06-03T05:05:04.679+0700][gc,cpu        ] GC(424) User=0.05s Sys=0.00s Real=0.01s
[2018-06-03T05:05:16.267+0700][gc,start      ] GC(425) Pause Young (G1 Evacuation Pause)
[2018-06-03T05:05:16.267+0700][gc,task       ] GC(425) Using 4 workers of 4 for evacuation
[2018-06-03T05:05:16.284+0700][gc,phases     ] GC(425)   Pre Evacuate Collection Set: 0.0ms
[2018-06-03T05:05:16.284+0700][gc,phases     ] GC(425)   Evacuate Collection Set: 16.3ms
[2018-06-03T05:05:16.284+0700][gc,phases     ] GC(425)   Post Evacuate Collection Set: 0.3ms
[2018-06-03T05:05:16.284+0700][gc,phases     ] GC(425)   Other: 0.3ms
[2018-06-03T05:05:16.284+0700][gc,heap       ] GC(425) Eden regions: 47->0(49)
[2018-06-03T05:05:16.284+0700][gc,heap       ] GC(425) Survivor regions: 4->4(7)
[2018-06-03T05:05:16.284+0700][gc,heap       ] GC(425) Old regions: 171->172
[2018-06-03T05:05:16.284+0700][gc,heap       ] GC(425) Humongous regions: 130->130
[2018-06-03T05:05:16.284+0700][gc,metaspace  ] GC(425) Metaspace: 36202K->36202K(1081344K)
[2018-06-03T05:05:16.284+0700][gc            ] GC(425) Pause Young (G1 Evacuation Pause) 351M->305M(1024M) 17.071ms
[2018-06-03T05:05:16.284+0700][gc,cpu        ] GC(425) User=0.07s Sys=0.00s Real=0.02s
[2018-06-03T05:05:26.784+0700][gc,start      ] GC(426) Pause Young (G1 Evacuation Pause)
[2018-06-03T05:05:26.786+0700][gc,task       ] GC(426) Using 4 workers of 4 for evacuation
[2018-06-03T05:05:26.806+0700][gc,mmu        ] GC(426) MMU target violated: 20.2ms (20.0ms/21.0ms)
[2018-06-03T05:05:26.806+0700][gc,phases     ] GC(426)   Pre Evacuate Collection Set: 0.0ms
[2018-06-03T05:05:26.806+0700][gc,phases     ] GC(426)   Evacuate Collection Set: 19.8ms
[2018-06-03T05:05:26.806+0700][gc,phases     ] GC(426)   Post Evacuate Collection Set: 0.3ms
[2018-06-03T05:05:26.806+0700][gc,phases     ] GC(426)   Other: 2.2ms
[2018-06-03T05:05:26.806+0700][gc,heap       ] GC(426) Eden regions: 47->0(48)
[2018-06-03T05:05:26.806+0700][gc,heap       ] GC(426) Survivor regions: 4->4(7)
[2018-06-03T05:05:26.806+0700][gc,heap       ] GC(426) Old regions: 172->172
[2018-06-03T05:05:26.806+0700][gc,heap       ] GC(426) Humongous regions: 130->130
[2018-06-03T05:05:26.806+0700][gc,metaspace  ] GC(426) Metaspace: 36202K->36202K(1081344K)
[2018-06-03T05:05:26.806+0700][gc            ] GC(426) Pause Young (G1 Evacuation Pause) 352M->305M(1024M) 22.425ms
[2018-06-03T05:05:26.806+0700][gc,cpu        ] GC(426) User=0.05s Sys=0.00s Real=0.02s
[2018-06-03T05:05:38.835+0700][gc,start      ] GC(427) Pause Young (G1 Evacuation Pause)
[2018-06-03T05:05:38.835+0700][gc,task       ] GC(427) Using 4 workers of 4 for evacuation
[2018-06-03T05:05:38.851+0700][gc,phases     ] GC(427)   Pre Evacuate Collection Set: 0.0ms
[2018-06-03T05:05:38.851+0700][gc,phases     ] GC(427)   Evacuate Collection Set: 15.4ms
[2018-06-03T05:05:38.851+0700][gc,phases     ] GC(427)   Post Evacuate Collection Set: 0.3ms
[2018-06-03T05:05:38.851+0700][gc,phases     ] GC(427)   Other: 0.2ms
[2018-06-03T05:05:38.851+0700][gc,heap       ] GC(427) Eden regions: 47->0(49)
[2018-06-03T05:05:38.851+0700][gc,heap       ] GC(427) Survivor regions: 4->4(7)
[2018-06-03T05:05:38.851+0700][gc,heap       ] GC(427) Old regions: 172->173
[2018-06-03T05:05:38.851+0700][gc,heap       ] GC(427) Humongous regions: 130->130
[2018-06-03T05:05:38.851+0700][gc,metaspace  ] GC(427) Metaspace: 36202K->36202K(1081344K)
[2018-06-03T05:05:38.851+0700][gc            ] GC(427) Pause Young (G1 Evacuation Pause) 352M->306M(1024M) 16.111ms
[2018-06-03T05:05:38.851+0700][gc,cpu        ] GC(427) User=0.05s Sys=0.00s Real=0.02s
[2018-06-03T05:05:50.312+0700][gc,start      ] GC(428) Pause Young (G1 Evacuation Pause)
[2018-06-03T05:05:50.314+0700][gc,task       ] GC(428) Using 4 workers of 4 for evacuation
[2018-06-03T05:05:50.335+0700][gc,mmu        ] GC(428) MMU target violated: 21.0ms (20.0ms/21.0ms)
[2018-06-03T05:05:50.335+0700][gc,phases     ] GC(428)   Pre Evacuate Collection Set: 0.0ms
[2018-06-03T05:05:50.335+0700][gc,phases     ] GC(428)   Evacuate Collection Set: 20.7ms
[2018-06-03T05:05:50.335+0700][gc,phases     ] GC(428)   Post Evacuate Collection Set: 0.3ms
[2018-06-03T05:05:50.335+0700][gc,phases     ] GC(428)   Other: 2.4ms
[2018-06-03T05:05:50.335+0700][gc,heap       ] GC(428) Eden regions: 49->0(48)
[2018-06-03T05:05:50.335+0700][gc,heap       ] GC(428) Survivor regions: 4->4(7)
[2018-06-03T05:05:50.335+0700][gc,heap       ] GC(428) Old regions: 173->173
[2018-06-03T05:05:50.335+0700][gc,heap       ] GC(428) Humongous regions: 130->130
[2018-06-03T05:05:50.335+0700][gc,metaspace  ] GC(428) Metaspace: 36202K->36202K(1081344K)
[2018-06-03T05:05:50.335+0700][gc            ] GC(428) Pause Young (G1 Evacuation Pause) 355M->306M(1024M) 23.559ms
[2018-06-03T05:05:50.335+0700][gc,cpu        ] GC(428) User=0.08s Sys=0.00s Real=0.02s
[2018-06-03T05:06:00.792+0700][gc,start      ] GC(429) Pause Young (G1 Evacuation Pause)
[2018-06-03T05:06:00.792+0700][gc,task       ] GC(429) Using 4 workers of 4 for evacuation
[2018-06-03T05:06:00.811+0700][gc,phases     ] GC(429)   Pre Evacuate Collection Set: 0.0ms
[2018-06-03T05:06:00.811+0700][gc,phases     ] GC(429)   Evacuate Collection Set: 18.4ms
[2018-06-03T05:06:00.811+0700][gc,phases     ] GC(429)   Post Evacuate Collection Set: 0.3ms
[2018-06-03T05:06:00.811+0700][gc,phases     ] GC(429)   Other: 0.3ms
[2018-06-03T05:06:00.811+0700][gc,heap       ] GC(429) Eden regions: 48->0(48)
[2018-06-03T05:06:00.811+0700][gc,heap       ] GC(429) Survivor regions: 4->4(7)
[2018-06-03T05:06:00.811+0700][gc,heap       ] GC(429) Old regions: 173->173
[2018-06-03T05:06:00.811+0700][gc,heap       ] GC(429) Humongous regions: 130->130
[2018-06-03T05:06:00.811+0700][gc,metaspace  ] GC(429) Metaspace: 36202K->36202K(1081344K)
[2018-06-03T05:06:00.811+0700][gc            ] GC(429) Pause Young (G1 Evacuation Pause) 354M->307M(1024M) 19.159ms
[2018-06-03T05:06:00.811+0700][gc,cpu        ] GC(429) User=0.05s Sys=0.00s Real=0.02s
[2018-06-03T05:06:13.046+0700][gc,start      ] GC(430) Pause Young (G1 Evacuation Pause)
[2018-06-03T05:06:13.046+0700][gc,task       ] GC(430) Using 4 workers of 4 for evacuation
[2018-06-03T05:06:13.069+0700][gc,mmu        ] GC(430) MMU target violated: 21.0ms (20.0ms/21.0ms)
[2018-06-03T05:06:13.069+0700][gc,phases     ] GC(430)   Pre Evacuate Collection Set: 0.0ms
[2018-06-03T05:06:13.069+0700][gc,phases     ] GC(430)   Evacuate Collection Set: 22.7ms
[2018-06-03T05:06:13.069+0700][gc,phases     ] GC(430)   Post Evacuate Collection Set: 0.3ms
[2018-06-03T05:06:13.069+0700][gc,phases     ] GC(430)   Other: 0.3ms
[2018-06-03T05:06:13.069+0700][gc,heap       ] GC(430) Eden regions: 47->0(47)
[2018-06-03T05:06:13.069+0700][gc,heap       ] GC(430) Survivor regions: 4->4(7)
[2018-06-03T05:06:13.069+0700][gc,heap       ] GC(430) Old regions: 173->174
[2018-06-03T05:06:13.069+0700][gc,heap       ] GC(430) Humongous regions: 130->130
[2018-06-03T05:06:13.069+0700][gc,metaspace  ] GC(430) Metaspace: 36202K->36202K(1081344K)
[2018-06-03T05:06:13.069+0700][gc            ] GC(430) Pause Young (G1 Evacuation Pause) 354M->307M(1024M) 23.349ms
[2018-06-03T05:06:13.069+0700][gc,cpu        ] GC(430) User=0.06s Sys=0.00s Real=0.02s
[2018-06-03T05:06:22.693+0700][gc,start      ] GC(431) Pause Young (G1 Evacuation Pause)
[2018-06-03T05:06:22.693+0700][gc,task       ] GC(431) Using 4 workers of 4 for evacuation
[2018-06-03T05:06:22.711+0700][gc,phases     ] GC(431)   Pre Evacuate Collection Set: 0.0ms
[2018-06-03T05:06:22.711+0700][gc,phases     ] GC(431)   Evacuate Collection Set: 17.5ms
[2018-06-03T05:06:22.711+0700][gc,phases     ] GC(431)   Post Evacuate Collection Set: 0.3ms
[2018-06-03T05:06:22.711+0700][gc,phases     ] GC(431)   Other: 0.4ms
[2018-06-03T05:06:22.711+0700][gc,heap       ] GC(431) Eden regions: 47->0(47)
[2018-06-03T05:06:22.711+0700][gc,heap       ] GC(431) Survivor regions: 4->4(7)
[2018-06-03T05:06:22.711+0700][gc,heap       ] GC(431) Old regions: 174->174
[2018-06-03T05:06:22.711+0700][gc,heap       ] GC(431) Humongous regions: 130->130
[2018-06-03T05:06:22.711+0700][gc,metaspace  ] GC(431) Metaspace: 36202K->36202K(1081344K)
[2018-06-03T05:06:22.711+0700][gc            ] GC(431) Pause Young (G1 Evacuation Pause) 354M->307M(1024M) 18.391ms
[2018-06-03T05:06:22.711+0700][gc,cpu        ] GC(431) User=0.05s Sys=0.00s Real=0.02s
[2018-06-03T05:06:34.909+0700][gc,start      ] GC(432) Pause Young (G1 Evacuation Pause)
[2018-06-03T05:06:34.909+0700][gc,task       ] GC(432) Using 4 workers of 4 for evacuation
[2018-06-03T05:06:34.922+0700][gc,phases     ] GC(432)   Pre Evacuate Collection Set: 0.0ms
[2018-06-03T05:06:34.922+0700][gc,phases     ] GC(432)   Evacuate Collection Set: 12.6ms
[2018-06-03T05:06:34.922+0700][gc,phases     ] GC(432)   Post Evacuate Collection Set: 0.3ms
[2018-06-03T05:06:34.922+0700][gc,phases     ] GC(432)   Other: 0.2ms
[2018-06-03T05:06:34.922+0700][gc,heap       ] GC(432) Eden regions: 47->0(48)
[2018-06-03T05:06:34.922+0700][gc,heap       ] GC(432) Survivor regions: 4->4(7)
[2018-06-03T05:06:34.922+0700][gc,heap       ] GC(432) Old regions: 174->175
[2018-06-03T05:06:34.922+0700][gc,heap       ] GC(432) Humongous regions: 130->130
[2018-06-03T05:06:34.922+0700][gc,metaspace  ] GC(432) Metaspace: 36202K->36202K(1081344K)
[2018-06-03T05:06:34.922+0700][gc            ] GC(432) Pause Young (G1 Evacuation Pause) 354M->308M(1024M) 13.335ms
[2018-06-03T05:06:34.922+0700][gc,cpu        ] GC(432) User=0.05s Sys=0.00s Real=0.02s
[2018-06-03T05:06:46.462+0700][gc,start      ] GC(433) Pause Young (G1 Evacuation Pause)
[2018-06-03T05:06:46.464+0700][gc,task       ] GC(433) Using 4 workers of 4 for evacuation
[2018-06-03T05:06:46.478+0700][gc,phases     ] GC(433)   Pre Evacuate Collection Set: 0.0ms
[2018-06-03T05:06:46.478+0700][gc,phases     ] GC(433)   Evacuate Collection Set: 13.4ms
[2018-06-03T05:06:46.478+0700][gc,phases     ] GC(433)   Post Evacuate Collection Set: 0.3ms
[2018-06-03T05:06:46.478+0700][gc,phases     ] GC(433)   Other: 2.2ms
[2018-06-03T05:06:46.478+0700][gc,heap       ] GC(433) Eden regions: 48->0(50)
[2018-06-03T05:06:46.478+0700][gc,heap       ] GC(433) Survivor regions: 4->5(7)
[2018-06-03T05:06:46.478+0700][gc,heap       ] GC(433) Old regions: 175->175
[2018-06-03T05:06:46.478+0700][gc,heap       ] GC(433) Humongous regions: 130->130
[2018-06-03T05:06:46.478+0700][gc,metaspace  ] GC(433) Metaspace: 36202K->36202K(1081344K)
[2018-06-03T05:06:46.478+0700][gc            ] GC(433) Pause Young (G1 Evacuation Pause) 356M->308M(1024M) 16.085ms
[2018-06-03T05:06:46.478+0700][gc,cpu        ] GC(433) User=0.05s Sys=0.00s Real=0.01s
[2018-06-03T05:06:58.479+0700][gc,start      ] GC(434) Pause Young (G1 Evacuation Pause)
[2018-06-03T05:06:58.479+0700][gc,task       ] GC(434) Using 4 workers of 4 for evacuation
[2018-06-03T05:06:58.495+0700][gc,phases     ] GC(434)   Pre Evacuate Collection Set: 0.0ms
[2018-06-03T05:06:58.495+0700][gc,phases     ] GC(434)   Evacuate Collection Set: 14.6ms
[2018-06-03T05:06:58.495+0700][gc,phases     ] GC(434)   Post Evacuate Collection Set: 0.8ms
[2018-06-03T05:06:58.495+0700][gc,phases     ] GC(434)   Other: 0.4ms
[2018-06-03T05:06:58.495+0700][gc,heap       ] GC(434) Eden regions: 50->0(51)
[2018-06-03T05:06:58.495+0700][gc,heap       ] GC(434) Survivor regions: 5->5(7)
[2018-06-03T05:06:58.495+0700][gc,heap       ] GC(434) Old regions: 175->176
[2018-06-03T05:06:58.495+0700][gc,heap       ] GC(434) Humongous regions: 130->130
[2018-06-03T05:06:58.495+0700][gc,metaspace  ] GC(434) Metaspace: 36202K->36202K(1081344K)
[2018-06-03T05:06:58.495+0700][gc            ] GC(434) Pause Young (G1 Evacuation Pause) 358M->309M(1024M) 16.267ms
[2018-06-03T05:06:58.495+0700][gc,cpu        ] GC(434) User=0.05s Sys=0.00s Real=0.02s
[2018-06-03T05:07:10.760+0700][gc,start      ] GC(435) Pause Young (G1 Evacuation Pause)
[2018-06-03T05:07:10.762+0700][gc,task       ] GC(435) Using 4 workers of 4 for evacuation
[2018-06-03T05:07:10.776+0700][gc,phases     ] GC(435)   Pre Evacuate Collection Set: 0.0ms
[2018-06-03T05:07:10.776+0700][gc,phases     ] GC(435)   Evacuate Collection Set: 12.9ms
[2018-06-03T05:07:10.776+0700][gc,phases     ] GC(435)   Post Evacuate Collection Set: 0.4ms
[2018-06-03T05:07:10.776+0700][gc,phases     ] GC(435)   Other: 2.1ms
[2018-06-03T05:07:10.776+0700][gc,heap       ] GC(435) Eden regions: 51->0(52)
[2018-06-03T05:07:10.776+0700][gc,heap       ] GC(435) Survivor regions: 5->4(7)
[2018-06-03T05:07:10.776+0700][gc,heap       ] GC(435) Old regions: 176->176
[2018-06-03T05:07:10.776+0700][gc,heap       ] GC(435) Humongous regions: 130->130
[2018-06-03T05:07:10.776+0700][gc,metaspace  ] GC(435) Metaspace: 36202K->36202K(1081344K)
[2018-06-03T05:07:10.776+0700][gc            ] GC(435) Pause Young (G1 Evacuation Pause) 360M->309M(1024M) 15.560ms
[2018-06-03T05:07:10.776+0700][gc,cpu        ] GC(435) User=0.05s Sys=0.00s Real=0.01s
[2018-06-03T05:07:22.549+0700][gc,start      ] GC(436) Pause Young (G1 Evacuation Pause)
[2018-06-03T05:07:22.549+0700][gc,task       ] GC(436) Using 4 workers of 4 for evacuation
[2018-06-03T05:07:22.567+0700][gc,phases     ] GC(436)   Pre Evacuate Collection Set: 0.0ms
[2018-06-03T05:07:22.567+0700][gc,phases     ] GC(436)   Evacuate Collection Set: 17.3ms
[2018-06-03T05:07:22.567+0700][gc,phases     ] GC(436)   Post Evacuate Collection Set: 0.2ms
[2018-06-03T05:07:22.567+0700][gc,phases     ] GC(436)   Other: 0.3ms
[2018-06-03T05:07:22.567+0700][gc,heap       ] GC(436) Eden regions: 52->0(54)
[2018-06-03T05:07:22.567+0700][gc,heap       ] GC(436) Survivor regions: 4->5(7)
[2018-06-03T05:07:22.567+0700][gc,heap       ] GC(436) Old regions: 176->176
[2018-06-03T05:07:22.567+0700][gc,heap       ] GC(436) Humongous regions: 130->130
[2018-06-03T05:07:22.567+0700][gc,metaspace  ] GC(436) Metaspace: 36202K->36202K(1081344K)
[2018-06-03T05:07:22.567+0700][gc            ] GC(436) Pause Young (G1 Evacuation Pause) 361M->310M(1024M) 17.991ms
[2018-06-03T05:07:22.567+0700][gc,cpu        ] GC(436) User=0.05s Sys=0.00s Real=0.02s
[2018-06-03T05:07:34.970+0700][gc,start      ] GC(437) Pause Young (G1 Evacuation Pause)
[2018-06-03T05:07:34.970+0700][gc,task       ] GC(437) Using 4 workers of 4 for evacuation
[2018-06-03T05:07:34.989+0700][gc,phases     ] GC(437)   Pre Evacuate Collection Set: 0.0ms
[2018-06-03T05:07:34.989+0700][gc,phases     ] GC(437)   Evacuate Collection Set: 17.9ms
[2018-06-03T05:07:34.989+0700][gc,phases     ] GC(437)   Post Evacuate Collection Set: 0.3ms
[2018-06-03T05:07:34.989+0700][gc,phases     ] GC(437)   Other: 0.2ms
[2018-06-03T05:07:34.989+0700][gc,heap       ] GC(437) Eden regions: 49->0(52)
[2018-06-03T05:07:34.989+0700][gc,heap       ] GC(437) Survivor regions: 5->4(7)
[2018-06-03T05:07:34.989+0700][gc,heap       ] GC(437) Old regions: 176->177
[2018-06-03T05:07:34.989+0700][gc,heap       ] GC(437) Humongous regions: 130->130
[2018-06-03T05:07:34.989+0700][gc,metaspace  ] GC(437) Metaspace: 36202K->36202K(1081344K)
[2018-06-03T05:07:34.989+0700][gc            ] GC(437) Pause Young (G1 Evacuation Pause) 359M->310M(1024M) 18.679ms
[2018-06-03T05:07:34.989+0700][gc,cpu        ] GC(437) User=0.05s Sys=0.00s Real=0.01s
[2018-06-03T05:07:47.114+0700][gc,start      ] GC(438) Pause Young (G1 Evacuation Pause)
[2018-06-03T05:07:47.114+0700][gc,task       ] GC(438) Using 4 workers of 4 for evacuation
[2018-06-03T05:07:47.135+0700][gc,mmu        ] GC(438) MMU target violated: 20.6ms (20.0ms/21.0ms)
[2018-06-03T05:07:47.135+0700][gc,phases     ] GC(438)   Pre Evacuate Collection Set: 0.0ms
[2018-06-03T05:07:47.135+0700][gc,phases     ] GC(438)   Evacuate Collection Set: 20.3ms
[2018-06-03T05:07:47.135+0700][gc,phases     ] GC(438)   Post Evacuate Collection Set: 0.3ms
[2018-06-03T05:07:47.135+0700][gc,phases     ] GC(438)   Other: 0.3ms
[2018-06-03T05:07:47.135+0700][gc,heap       ] GC(438) Eden regions: 52->0(52)
[2018-06-03T05:07:47.135+0700][gc,heap       ] GC(438) Survivor regions: 4->4(7)
[2018-06-03T05:07:47.135+0700][gc,heap       ] GC(438) Old regions: 177->177
[2018-06-03T05:07:47.135+0700][gc,heap       ] GC(438) Humongous regions: 130->130
[2018-06-03T05:07:47.135+0700][gc,metaspace  ] GC(438) Metaspace: 36202K->36202K(1081344K)
[2018-06-03T05:07:47.135+0700][gc            ] GC(438) Pause Young (G1 Evacuation Pause) 362M->310M(1024M) 20.962ms
[2018-06-03T05:07:47.135+0700][gc,cpu        ] GC(438) User=0.06s Sys=0.01s Real=0.02s
[2018-06-03T05:07:56.712+0700][gc,start      ] GC(439) Pause Young (G1 Evacuation Pause)
[2018-06-03T05:07:56.712+0700][gc,task       ] GC(439) Using 4 workers of 4 for evacuation
[2018-06-03T05:07:56.725+0700][gc,phases     ] GC(439)   Pre Evacuate Collection Set: 0.0ms
[2018-06-03T05:07:56.726+0700][gc,phases     ] GC(439)   Evacuate Collection Set: 13.3ms
[2018-06-03T05:07:56.726+0700][gc,phases     ] GC(439)   Post Evacuate Collection Set: 0.3ms
[2018-06-03T05:07:56.726+0700][gc,phases     ] GC(439)   Other: 0.2ms
[2018-06-03T05:07:56.726+0700][gc,heap       ] GC(439) Eden regions: 47->0(52)
[2018-06-03T05:07:56.726+0700][gc,heap       ] GC(439) Survivor regions: 4->5(7)
[2018-06-03T05:07:56.726+0700][gc,heap       ] GC(439) Old regions: 177->177
[2018-06-03T05:07:56.726+0700][gc,heap       ] GC(439) Humongous regions: 130->130
[2018-06-03T05:07:56.726+0700][gc,metaspace  ] GC(439) Metaspace: 36202K->36202K(1081344K)
[2018-06-03T05:07:56.726+0700][gc            ] GC(439) Pause Young (G1 Evacuation Pause) 357M->311M(1024M) 14.092ms
[2018-06-03T05:07:56.726+0700][gc,cpu        ] GC(439) User=0.05s Sys=0.00s Real=0.01s
[2018-06-03T05:08:10.661+0700][gc,start      ] GC(440) Pause Young (G1 Evacuation Pause)
[2018-06-03T05:08:10.661+0700][gc,task       ] GC(440) Using 4 workers of 4 for evacuation
[2018-06-03T05:08:10.675+0700][gc,phases     ] GC(440)   Pre Evacuate Collection Set: 0.0ms
[2018-06-03T05:08:10.675+0700][gc,phases     ] GC(440)   Evacuate Collection Set: 13.1ms
[2018-06-03T05:08:10.675+0700][gc,phases     ] GC(440)   Post Evacuate Collection Set: 0.2ms
[2018-06-03T05:08:10.675+0700][gc,phases     ] GC(440)   Other: 0.2ms
[2018-06-03T05:08:10.675+0700][gc,heap       ] GC(440) Eden regions: 52->0(53)
[2018-06-03T05:08:10.675+0700][gc,heap       ] GC(440) Survivor regions: 5->5(8)
[2018-06-03T05:08:10.675+0700][gc,heap       ] GC(440) Old regions: 177->177
[2018-06-03T05:08:10.675+0700][gc,heap       ] GC(440) Humongous regions: 130->130
[2018-06-03T05:08:10.675+0700][gc,metaspace  ] GC(440) Metaspace: 36202K->36202K(1081344K)
[2018-06-03T05:08:10.675+0700][gc            ] GC(440) Pause Young (G1 Evacuation Pause) 363M->311M(1024M) 13.683ms
[2018-06-03T05:08:10.675+0700][gc,cpu        ] GC(440) User=0.06s Sys=0.00s Real=0.01s
[2018-06-03T05:08:23.144+0700][gc,start      ] GC(441) Pause Young (G1 Evacuation Pause)
[2018-06-03T05:08:23.144+0700][gc,task       ] GC(441) Using 4 workers of 4 for evacuation
[2018-06-03T05:08:23.165+0700][gc,mmu        ] GC(441) MMU target violated: 20.3ms (20.0ms/21.0ms)
[2018-06-03T05:08:23.165+0700][gc,phases     ] GC(441)   Pre Evacuate Collection Set: 0.1ms
[2018-06-03T05:08:23.165+0700][gc,phases     ] GC(441)   Evacuate Collection Set: 19.8ms
[2018-06-03T05:08:23.165+0700][gc,phases     ] GC(441)   Post Evacuate Collection Set: 0.3ms
[2018-06-03T05:08:23.165+0700][gc,phases     ] GC(441)   Other: 1.0ms
[2018-06-03T05:08:23.165+0700][gc,heap       ] GC(441) Eden regions: 53->0(53)
[2018-06-03T05:08:23.165+0700][gc,heap       ] GC(441) Survivor regions: 5->5(8)
[2018-06-03T05:08:23.165+0700][gc,heap       ] GC(441) Old regions: 177->178
[2018-06-03T05:08:23.165+0700][gc,heap       ] GC(441) Humongous regions: 130->130
[2018-06-03T05:08:23.165+0700][gc,metaspace  ] GC(441) Metaspace: 36202K->36202K(1081344K)
[2018-06-03T05:08:23.165+0700][gc            ] GC(441) Pause Young (G1 Evacuation Pause) 364M->312M(1024M) 20.771ms
[2018-06-03T05:08:23.165+0700][gc,cpu        ] GC(441) User=0.06s Sys=0.00s Real=0.02s
[2018-06-03T05:08:35.203+0700][gc,start      ] GC(442) Pause Young (G1 Evacuation Pause)
[2018-06-03T05:08:35.203+0700][gc,task       ] GC(442) Using 4 workers of 4 for evacuation
[2018-06-03T05:08:35.223+0700][gc,phases     ] GC(442)   Pre Evacuate Collection Set: 0.0ms
[2018-06-03T05:08:35.223+0700][gc,phases     ] GC(442)   Evacuate Collection Set: 19.1ms
[2018-06-03T05:08:35.223+0700][gc,phases     ] GC(442)   Post Evacuate Collection Set: 0.3ms
[2018-06-03T05:08:35.223+0700][gc,phases     ] GC(442)   Other: 0.2ms
[2018-06-03T05:08:35.223+0700][gc,heap       ] GC(442) Eden regions: 53->0(54)
[2018-06-03T05:08:35.223+0700][gc,heap       ] GC(442) Survivor regions: 5->5(8)
[2018-06-03T05:08:35.223+0700][gc,heap       ] GC(442) Old regions: 178->178
[2018-06-03T05:08:35.223+0700][gc,heap       ] GC(442) Humongous regions: 130->130
[2018-06-03T05:08:35.223+0700][gc,metaspace  ] GC(442) Metaspace: 36202K->36202K(1081344K)
[2018-06-03T05:08:35.223+0700][gc            ] GC(442) Pause Young (G1 Evacuation Pause) 365M->312M(1024M) 19.740ms
[2018-06-03T05:08:35.223+0700][gc,cpu        ] GC(442) User=0.05s Sys=0.01s Real=0.02s
[2018-06-03T05:08:48.915+0700][gc,start      ] GC(443) Pause Young (G1 Evacuation Pause)
[2018-06-03T05:08:48.916+0700][gc,task       ] GC(443) Using 4 workers of 4 for evacuation
[2018-06-03T05:08:48.935+0700][gc,phases     ] GC(443)   Pre Evacuate Collection Set: 0.0ms
[2018-06-03T05:08:48.935+0700][gc,phases     ] GC(443)   Evacuate Collection Set: 19.3ms
[2018-06-03T05:08:48.935+0700][gc,phases     ] GC(443)   Post Evacuate Collection Set: 0.3ms
[2018-06-03T05:08:48.935+0700][gc,phases     ] GC(443)   Other: 0.2ms
[2018-06-03T05:08:48.935+0700][gc,heap       ] GC(443) Eden regions: 54->0(54)
[2018-06-03T05:08:48.936+0700][gc,heap       ] GC(443) Survivor regions: 5->5(8)
[2018-06-03T05:08:48.936+0700][gc,heap       ] GC(443) Old regions: 178->179
[2018-06-03T05:08:48.936+0700][gc,heap       ] GC(443) Humongous regions: 130->130
[2018-06-03T05:08:48.936+0700][gc,metaspace  ] GC(443) Metaspace: 36202K->36202K(1081344K)
[2018-06-03T05:08:48.936+0700][gc            ] GC(443) Pause Young (G1 Evacuation Pause) 366M->312M(1024M) 20.106ms
[2018-06-03T05:08:48.936+0700][gc,cpu        ] GC(443) User=0.06s Sys=0.01s Real=0.02s
[2018-06-03T05:09:01.167+0700][gc,start      ] GC(444) Pause Young (G1 Evacuation Pause)
[2018-06-03T05:09:01.168+0700][gc,task       ] GC(444) Using 4 workers of 4 for evacuation
[2018-06-03T05:09:01.190+0700][gc,mmu        ] GC(444) MMU target violated: 21.0ms (20.0ms/21.0ms)
[2018-06-03T05:09:01.191+0700][gc,phases     ] GC(444)   Pre Evacuate Collection Set: 0.1ms
[2018-06-03T05:09:01.191+0700][gc,phases     ] GC(444)   Evacuate Collection Set: 22.3ms
[2018-06-03T05:09:01.191+0700][gc,phases     ] GC(444)   Post Evacuate Collection Set: 0.3ms
[2018-06-03T05:09:01.191+0700][gc,phases     ] GC(444)   Other: 0.9ms
[2018-06-03T05:09:01.191+0700][gc,heap       ] GC(444) Eden regions: 54->0(54)
[2018-06-03T05:09:01.191+0700][gc,heap       ] GC(444) Survivor regions: 5->5(8)
[2018-06-03T05:09:01.191+0700][gc,heap       ] GC(444) Old regions: 179->179
[2018-06-03T05:09:01.191+0700][gc,heap       ] GC(444) Humongous regions: 130->130
[2018-06-03T05:09:01.191+0700][gc,metaspace  ] GC(444) Metaspace: 36202K->36202K(1081344K)
[2018-06-03T05:09:01.191+0700][gc            ] GC(444) Pause Young (G1 Evacuation Pause) 366M->313M(1024M) 23.734ms
[2018-06-03T05:09:01.191+0700][gc,cpu        ] GC(444) User=0.05s Sys=0.00s Real=0.03s
[2018-06-03T05:09:13.147+0700][gc,start      ] GC(445) Pause Young (G1 Evacuation Pause)
[2018-06-03T05:09:13.148+0700][gc,task       ] GC(445) Using 4 workers of 4 for evacuation
[2018-06-03T05:09:13.169+0700][gc,mmu        ] GC(445) MMU target violated: 20.1ms (20.0ms/21.0ms)
[2018-06-03T05:09:13.169+0700][gc,phases     ] GC(445)   Pre Evacuate Collection Set: 0.1ms
[2018-06-03T05:09:13.169+0700][gc,phases     ] GC(445)   Evacuate Collection Set: 19.7ms
[2018-06-03T05:09:13.169+0700][gc,phases     ] GC(445)   Post Evacuate Collection Set: 0.3ms
[2018-06-03T05:09:13.169+0700][gc,phases     ] GC(445)   Other: 1.4ms
[2018-06-03T05:09:13.169+0700][gc,heap       ] GC(445) Eden regions: 54->0(54)
[2018-06-03T05:09:13.169+0700][gc,heap       ] GC(445) Survivor regions: 5->5(8)
[2018-06-03T05:09:13.169+0700][gc,heap       ] GC(445) Old regions: 179->179
[2018-06-03T05:09:13.169+0700][gc,heap       ] GC(445) Humongous regions: 130->130
[2018-06-03T05:09:13.169+0700][gc,metaspace  ] GC(445) Metaspace: 36202K->36202K(1081344K)
[2018-06-03T05:09:13.169+0700][gc            ] GC(445) Pause Young (G1 Evacuation Pause) 367M->313M(1024M) 21.531ms
[2018-06-03T05:09:13.169+0700][gc,cpu        ] GC(445) User=0.05s Sys=0.00s Real=0.02s
[2018-06-03T05:09:25.284+0700][gc,start      ] GC(446) Pause Young (G1 Evacuation Pause)
[2018-06-03T05:09:25.284+0700][gc,task       ] GC(446) Using 4 workers of 4 for evacuation
[2018-06-03T05:09:25.304+0700][gc,phases     ] GC(446)   Pre Evacuate Collection Set: 0.0ms
[2018-06-03T05:09:25.304+0700][gc,phases     ] GC(446)   Evacuate Collection Set: 19.6ms
[2018-06-03T05:09:25.304+0700][gc,phases     ] GC(446)   Post Evacuate Collection Set: 0.3ms
[2018-06-03T05:09:25.304+0700][gc,phases     ] GC(446)   Other: 0.2ms
[2018-06-03T05:09:25.304+0700][gc,heap       ] GC(446) Eden regions: 48->0(51)
[2018-06-03T05:09:25.304+0700][gc,heap       ] GC(446) Survivor regions: 5->4(7)
[2018-06-03T05:09:25.304+0700][gc,heap       ] GC(446) Old regions: 179->181
[2018-06-03T05:09:25.304+0700][gc,heap       ] GC(446) Humongous regions: 130->130
[2018-06-03T05:09:25.304+0700][gc,metaspace  ] GC(446) Metaspace: 36202K->36202K(1081344K)
[2018-06-03T05:09:25.304+0700][gc            ] GC(446) Pause Young (G1 Evacuation Pause) 361M->314M(1024M) 20.301ms
[2018-06-03T05:09:25.304+0700][gc,cpu        ] GC(446) User=0.06s Sys=0.01s Real=0.02s
[2018-06-03T05:09:37.157+0700][gc,start      ] GC(447) Pause Young (G1 Evacuation Pause)
[2018-06-03T05:09:37.157+0700][gc,task       ] GC(447) Using 4 workers of 4 for evacuation
[2018-06-03T05:09:37.171+0700][gc,phases     ] GC(447)   Pre Evacuate Collection Set: 0.0ms
[2018-06-03T05:09:37.171+0700][gc,phases     ] GC(447)   Evacuate Collection Set: 13.5ms
[2018-06-03T05:09:37.171+0700][gc,phases     ] GC(447)   Post Evacuate Collection Set: 0.3ms
[2018-06-03T05:09:37.171+0700][gc,phases     ] GC(447)   Other: 0.2ms
[2018-06-03T05:09:37.171+0700][gc,heap       ] GC(447) Eden regions: 47->0(50)
[2018-06-03T05:09:37.171+0700][gc,heap       ] GC(447) Survivor regions: 4->4(7)
[2018-06-03T05:09:37.171+0700][gc,heap       ] GC(447) Old regions: 181->181
[2018-06-03T05:09:37.171+0700][gc,heap       ] GC(447) Humongous regions: 130->130
[2018-06-03T05:09:37.171+0700][gc,metaspace  ] GC(447) Metaspace: 36202K->36202K(1081344K)
[2018-06-03T05:09:37.171+0700][gc            ] GC(447) Pause Young (G1 Evacuation Pause) 361M->314M(1024M) 14.119ms
[2018-06-03T05:09:37.171+0700][gc,cpu        ] GC(447) User=0.05s Sys=0.00s Real=0.02s
[2018-06-03T05:09:48.462+0700][gc,start      ] GC(448) Pause Young (G1 Evacuation Pause)
[2018-06-03T05:09:48.462+0700][gc,task       ] GC(448) Using 4 workers of 4 for evacuation
[2018-06-03T05:09:48.480+0700][gc,phases     ] GC(448)   Pre Evacuate Collection Set: 0.0ms
[2018-06-03T05:09:48.480+0700][gc,phases     ] GC(448)   Evacuate Collection Set: 18.1ms
[2018-06-03T05:09:48.481+0700][gc,phases     ] GC(448)   Post Evacuate Collection Set: 0.3ms
[2018-06-03T05:09:48.481+0700][gc,phases     ] GC(448)   Other: 0.2ms
[2018-06-03T05:09:48.481+0700][gc,heap       ] GC(448) Eden regions: 50->0(50)
[2018-06-03T05:09:48.481+0700][gc,heap       ] GC(448) Survivor regions: 4->4(7)
[2018-06-03T05:09:48.481+0700][gc,heap       ] GC(448) Old regions: 181->182
[2018-06-03T05:09:48.481+0700][gc,heap       ] GC(448) Humongous regions: 130->130
[2018-06-03T05:09:48.481+0700][gc,metaspace  ] GC(448) Metaspace: 36202K->36202K(1081344K)
[2018-06-03T05:09:48.481+0700][gc            ] GC(448) Pause Young (G1 Evacuation Pause) 364M->315M(1024M) 18.808ms
[2018-06-03T05:09:48.481+0700][gc,cpu        ] GC(448) User=0.05s Sys=0.00s Real=0.02s
[2018-06-03T05:10:00.521+0700][gc,start      ] GC(449) Pause Young (G1 Evacuation Pause)
[2018-06-03T05:10:00.521+0700][gc,task       ] GC(449) Using 4 workers of 4 for evacuation
[2018-06-03T05:10:00.534+0700][gc,phases     ] GC(449)   Pre Evacuate Collection Set: 0.0ms
[2018-06-03T05:10:00.534+0700][gc,phases     ] GC(449)   Evacuate Collection Set: 12.9ms
[2018-06-03T05:10:00.534+0700][gc,phases     ] GC(449)   Post Evacuate Collection Set: 0.3ms
[2018-06-03T05:10:00.534+0700][gc,phases     ] GC(449)   Other: 0.2ms
[2018-06-03T05:10:00.534+0700][gc,heap       ] GC(449) Eden regions: 50->0(52)
[2018-06-03T05:10:00.534+0700][gc,heap       ] GC(449) Survivor regions: 4->4(7)
[2018-06-03T05:10:00.534+0700][gc,heap       ] GC(449) Old regions: 182->182
[2018-06-03T05:10:00.534+0700][gc,heap       ] GC(449) Humongous regions: 130->130
[2018-06-03T05:10:00.534+0700][gc,metaspace  ] GC(449) Metaspace: 36202K->36202K(1081344K)
[2018-06-03T05:10:00.534+0700][gc            ] GC(449) Pause Young (G1 Evacuation Pause) 365M->315M(1024M) 13.523ms
[2018-06-03T05:10:00.534+0700][gc,cpu        ] GC(449) User=0.05s Sys=0.00s Real=0.01s
[2018-06-03T05:10:12.475+0700][gc,start      ] GC(450) Pause Young (G1 Evacuation Pause)
[2018-06-03T05:10:12.475+0700][gc,task       ] GC(450) Using 4 workers of 4 for evacuation
[2018-06-03T05:10:12.494+0700][gc,phases     ] GC(450)   Pre Evacuate Collection Set: 0.0ms
[2018-06-03T05:10:12.494+0700][gc,phases     ] GC(450)   Evacuate Collection Set: 18.6ms
[2018-06-03T05:10:12.494+0700][gc,phases     ] GC(450)   Post Evacuate Collection Set: 0.3ms
[2018-06-03T05:10:12.494+0700][gc,phases     ] GC(450)   Other: 0.2ms
[2018-06-03T05:10:12.494+0700][gc,heap       ] GC(450) Eden regions: 52->0(52)
[2018-06-03T05:10:12.494+0700][gc,heap       ] GC(450) Survivor regions: 4->4(7)
[2018-06-03T05:10:12.494+0700][gc,heap       ] GC(450) Old regions: 182->183
[2018-06-03T05:10:12.494+0700][gc,heap       ] GC(450) Humongous regions: 130->130
[2018-06-03T05:10:12.494+0700][gc,metaspace  ] GC(450) Metaspace: 36202K->36202K(1081344K)
[2018-06-03T05:10:12.494+0700][gc            ] GC(450) Pause Young (G1 Evacuation Pause) 367M->315M(1024M) 19.359ms
[2018-06-03T05:10:12.494+0700][gc,cpu        ] GC(450) User=0.05s Sys=0.00s Real=0.02s
[2018-06-03T05:10:24.847+0700][gc,start      ] GC(451) Pause Young (G1 Evacuation Pause)
[2018-06-03T05:10:24.847+0700][gc,task       ] GC(451) Using 4 workers of 4 for evacuation
[2018-06-03T05:10:24.861+0700][gc,phases     ] GC(451)   Pre Evacuate Collection Set: 0.0ms
[2018-06-03T05:10:24.861+0700][gc,phases     ] GC(451)   Evacuate Collection Set: 14.1ms
[2018-06-03T05:10:24.861+0700][gc,phases     ] GC(451)   Post Evacuate Collection Set: 0.3ms
[2018-06-03T05:10:24.861+0700][gc,phases     ] GC(451)   Other: 0.2ms
[2018-06-03T05:10:24.861+0700][gc,heap       ] GC(451) Eden regions: 52->0(53)
[2018-06-03T05:10:24.861+0700][gc,heap       ] GC(451) Survivor regions: 4->4(7)
[2018-06-03T05:10:24.861+0700][gc,heap       ] GC(451) Old regions: 183->183
[2018-06-03T05:10:24.861+0700][gc,heap       ] GC(451) Humongous regions: 130->130
[2018-06-03T05:10:24.861+0700][gc,metaspace  ] GC(451) Metaspace: 36202K->36202K(1081344K)
[2018-06-03T05:10:24.861+0700][gc            ] GC(451) Pause Young (G1 Evacuation Pause) 367M->316M(1024M) 14.798ms
[2018-06-03T05:10:24.861+0700][gc,cpu        ] GC(451) User=0.05s Sys=0.01s Real=0.02s
[2018-06-03T05:10:37.148+0700][gc,start      ] GC(452) Pause Young (G1 Evacuation Pause)
[2018-06-03T05:10:37.148+0700][gc,task       ] GC(452) Using 4 workers of 4 for evacuation
[2018-06-03T05:10:37.171+0700][gc,mmu        ] GC(452) MMU target violated: 21.0ms (20.0ms/21.0ms)
[2018-06-03T05:10:37.171+0700][gc,phases     ] GC(452)   Pre Evacuate Collection Set: 0.1ms
[2018-06-03T05:10:37.171+0700][gc,phases     ] GC(452)   Evacuate Collection Set: 22.1ms
[2018-06-03T05:10:37.171+0700][gc,phases     ] GC(452)   Post Evacuate Collection Set: 0.3ms
[2018-06-03T05:10:37.171+0700][gc,phases     ] GC(452)   Other: 0.6ms
[2018-06-03T05:10:37.171+0700][gc,heap       ] GC(452) Eden regions: 53->0(53)
[2018-06-03T05:10:37.171+0700][gc,heap       ] GC(452) Survivor regions: 4->5(8)
[2018-06-03T05:10:37.171+0700][gc,heap       ] GC(452) Old regions: 183->183
[2018-06-03T05:10:37.171+0700][gc,heap       ] GC(452) Humongous regions: 130->130
[2018-06-03T05:10:37.171+0700][gc,metaspace  ] GC(452) Metaspace: 36202K->36202K(1081344K)
[2018-06-03T05:10:37.171+0700][gc            ] GC(452) Pause Young (G1 Evacuation Pause) 369M->316M(1024M) 23.222ms
[2018-06-03T05:10:37.171+0700][gc,cpu        ] GC(452) User=0.05s Sys=0.00s Real=0.03s
[2018-06-03T05:10:50.541+0700][gc,start      ] GC(453) Pause Young (G1 Evacuation Pause)
[2018-06-03T05:10:50.542+0700][gc,task       ] GC(453) Using 4 workers of 4 for evacuation
[2018-06-03T05:10:50.557+0700][gc,phases     ] GC(453)   Pre Evacuate Collection Set: 0.0ms
[2018-06-03T05:10:50.557+0700][gc,phases     ] GC(453)   Evacuate Collection Set: 15.1ms
[2018-06-03T05:10:50.557+0700][gc,phases     ] GC(453)   Post Evacuate Collection Set: 0.4ms
[2018-06-03T05:10:50.557+0700][gc,phases     ] GC(453)   Other: 0.2ms
[2018-06-03T05:10:50.557+0700][gc,heap       ] GC(453) Eden regions: 53->0(54)
[2018-06-03T05:10:50.557+0700][gc,heap       ] GC(453) Survivor regions: 5->5(8)
[2018-06-03T05:10:50.557+0700][gc,heap       ] GC(453) Old regions: 183->183
[2018-06-03T05:10:50.557+0700][gc,heap       ] GC(453) Humongous regions: 130->130
[2018-06-03T05:10:50.557+0700][gc,metaspace  ] GC(453) Metaspace: 36202K->36202K(1081344K)
[2018-06-03T05:10:50.557+0700][gc            ] GC(453) Pause Young (G1 Evacuation Pause) 369M->317M(1024M) 15.912ms
[2018-06-03T05:10:50.557+0700][gc,cpu        ] GC(453) User=0.05s Sys=0.00s Real=0.01s
[2018-06-03T05:11:00.698+0700][gc,start      ] GC(454) Pause Young (G1 Evacuation Pause)
[2018-06-03T05:11:00.698+0700][gc,task       ] GC(454) Using 4 workers of 4 for evacuation
[2018-06-03T05:11:00.719+0700][gc,mmu        ] GC(454) MMU target violated: 21.0ms (20.0ms/21.0ms)
[2018-06-03T05:11:00.720+0700][gc,phases     ] GC(454)   Pre Evacuate Collection Set: 0.0ms
[2018-06-03T05:11:00.720+0700][gc,phases     ] GC(454)   Evacuate Collection Set: 21.4ms
[2018-06-03T05:11:00.720+0700][gc,phases     ] GC(454)   Post Evacuate Collection Set: 0.3ms
[2018-06-03T05:11:00.720+0700][gc,phases     ] GC(454)   Other: 0.3ms
[2018-06-03T05:11:00.720+0700][gc,heap       ] GC(454) Eden regions: 47->0(52)
[2018-06-03T05:11:00.720+0700][gc,heap       ] GC(454) Survivor regions: 5->4(7)
[2018-06-03T05:11:00.720+0700][gc,heap       ] GC(454) Old regions: 183->184
[2018-06-03T05:11:00.720+0700][gc,heap       ] GC(454) Humongous regions: 130->130
[2018-06-03T05:11:00.720+0700][gc,metaspace  ] GC(454) Metaspace: 36202K->36202K(1081344K)
[2018-06-03T05:11:00.720+0700][gc            ] GC(454) Pause Young (G1 Evacuation Pause) 364M->317M(1024M) 22.187ms
[2018-06-03T05:11:00.720+0700][gc,cpu        ] GC(454) User=0.05s Sys=0.00s Real=0.03s
[2018-06-03T05:11:12.798+0700][gc,start      ] GC(455) Pause Young (G1 Evacuation Pause)
[2018-06-03T05:11:12.798+0700][gc,task       ] GC(455) Using 4 workers of 4 for evacuation
[2018-06-03T05:11:12.811+0700][gc,phases     ] GC(455)   Pre Evacuate Collection Set: 0.0ms
[2018-06-03T05:11:12.811+0700][gc,phases     ] GC(455)   Evacuate Collection Set: 12.9ms
[2018-06-03T05:11:12.811+0700][gc,phases     ] GC(455)   Post Evacuate Collection Set: 0.4ms
[2018-06-03T05:11:12.811+0700][gc,phases     ] GC(455)   Other: 0.2ms
[2018-06-03T05:11:12.811+0700][gc,heap       ] GC(455) Eden regions: 47->0(53)
[2018-06-03T05:11:12.811+0700][gc,heap       ] GC(455) Survivor regions: 4->5(7)
[2018-06-03T05:11:12.811+0700][gc,heap       ] GC(455) Old regions: 184->184
[2018-06-03T05:11:12.811+0700][gc,heap       ] GC(455) Humongous regions: 130->130
[2018-06-03T05:11:12.811+0700][gc,metaspace  ] GC(455) Metaspace: 36202K->36202K(1081344K)
[2018-06-03T05:11:12.811+0700][gc            ] GC(455) Pause Young (G1 Evacuation Pause) 364M->317M(1024M) 13.724ms
[2018-06-03T05:11:12.811+0700][gc,cpu        ] GC(455) User=0.05s Sys=0.01s Real=0.02s
[2018-06-03T05:11:24.970+0700][gc,start      ] GC(456) Pause Young (G1 Evacuation Pause)
[2018-06-03T05:11:24.971+0700][gc,task       ] GC(456) Using 4 workers of 4 for evacuation
[2018-06-03T05:11:24.989+0700][gc,phases     ] GC(456)   Pre Evacuate Collection Set: 0.0ms
[2018-06-03T05:11:24.989+0700][gc,phases     ] GC(456)   Evacuate Collection Set: 17.5ms
[2018-06-03T05:11:24.989+0700][gc,phases     ] GC(456)   Post Evacuate Collection Set: 0.3ms
[2018-06-03T05:11:24.989+0700][gc,phases     ] GC(456)   Other: 0.2ms
[2018-06-03T05:11:24.989+0700][gc,heap       ] GC(456) Eden regions: 53->0(52)
[2018-06-03T05:11:24.989+0700][gc,heap       ] GC(456) Survivor regions: 5->5(8)
[2018-06-03T05:11:24.989+0700][gc,heap       ] GC(456) Old regions: 184->184
[2018-06-03T05:11:24.989+0700][gc,heap       ] GC(456) Humongous regions: 130->130
[2018-06-03T05:11:24.989+0700][gc,metaspace  ] GC(456) Metaspace: 36202K->36202K(1081344K)
[2018-06-03T05:11:24.989+0700][gc            ] GC(456) Pause Young (G1 Evacuation Pause) 370M->318M(1024M) 18.341ms
[2018-06-03T05:11:24.989+0700][gc,cpu        ] GC(456) User=0.06s Sys=0.00s Real=0.01s
[2018-06-03T05:11:36.903+0700][gc,start      ] GC(457) Pause Young (G1 Evacuation Pause)
[2018-06-03T05:11:36.903+0700][gc,task       ] GC(457) Using 4 workers of 4 for evacuation
[2018-06-03T05:11:36.920+0700][gc,phases     ] GC(457)   Pre Evacuate Collection Set: 0.0ms
[2018-06-03T05:11:36.920+0700][gc,phases     ] GC(457)   Evacuate Collection Set: 15.9ms
[2018-06-03T05:11:36.920+0700][gc,phases     ] GC(457)   Post Evacuate Collection Set: 0.4ms
[2018-06-03T05:11:36.920+0700][gc,phases     ] GC(457)   Other: 0.3ms
[2018-06-03T05:11:36.920+0700][gc,heap       ] GC(457) Eden regions: 52->0(54)
[2018-06-03T05:11:36.920+0700][gc,heap       ] GC(457) Survivor regions: 5->5(8)
[2018-06-03T05:11:36.920+0700][gc,heap       ] GC(457) Old regions: 184->185
[2018-06-03T05:11:36.920+0700][gc,heap       ] GC(457) Humongous regions: 130->130
[2018-06-03T05:11:36.920+0700][gc,metaspace  ] GC(457) Metaspace: 36202K->36202K(1081344K)
[2018-06-03T05:11:36.920+0700][gc            ] GC(457) Pause Young (G1 Evacuation Pause) 370M->318M(1024M) 16.936ms
[2018-06-03T05:11:36.920+0700][gc,cpu        ] GC(457) User=0.05s Sys=0.00s Real=0.02s
[2018-06-03T05:11:50.600+0700][gc,start      ] GC(458) Pause Young (G1 Evacuation Pause)
[2018-06-03T05:11:50.600+0700][gc,task       ] GC(458) Using 4 workers of 4 for evacuation
[2018-06-03T05:11:50.614+0700][gc,phases     ] GC(458)   Pre Evacuate Collection Set: 0.0ms
[2018-06-03T05:11:50.614+0700][gc,phases     ] GC(458)   Evacuate Collection Set: 13.8ms
[2018-06-03T05:11:50.614+0700][gc,phases     ] GC(458)   Post Evacuate Collection Set: 0.3ms
[2018-06-03T05:11:50.614+0700][gc,phases     ] GC(458)   Other: 0.2ms
[2018-06-03T05:11:50.614+0700][gc,heap       ] GC(458) Eden regions: 54->0(55)
[2018-06-03T05:11:50.614+0700][gc,heap       ] GC(458) Survivor regions: 5->5(8)
[2018-06-03T05:11:50.614+0700][gc,heap       ] GC(458) Old regions: 185->185
[2018-06-03T05:11:50.614+0700][gc,heap       ] GC(458) Humongous regions: 130->130
[2018-06-03T05:11:50.614+0700][gc,metaspace  ] GC(458) Metaspace: 36202K->36202K(1081344K)
[2018-06-03T05:11:50.614+0700][gc            ] GC(458) Pause Young (G1 Evacuation Pause) 372M->319M(1024M) 14.534ms
[2018-06-03T05:11:50.614+0700][gc,cpu        ] GC(458) User=0.05s Sys=0.00s Real=0.01s
[2018-06-03T05:12:02.669+0700][gc,start      ] GC(459) Pause Young (G1 Evacuation Pause)
[2018-06-03T05:12:02.669+0700][gc,task       ] GC(459) Using 4 workers of 4 for evacuation
[2018-06-03T05:12:02.690+0700][gc,mmu        ] GC(459) MMU target violated: 21.0ms (20.0ms/21.0ms)
[2018-06-03T05:12:02.690+0700][gc,phases     ] GC(459)   Pre Evacuate Collection Set: 0.1ms
[2018-06-03T05:12:02.691+0700][gc,phases     ] GC(459)   Evacuate Collection Set: 21.0ms
[2018-06-03T05:12:02.691+0700][gc,phases     ] GC(459)   Post Evacuate Collection Set: 0.4ms
[2018-06-03T05:12:02.691+0700][gc,phases     ] GC(459)   Other: 0.4ms
[2018-06-03T05:12:02.691+0700][gc,heap       ] GC(459) Eden regions: 55->0(55)
[2018-06-03T05:12:02.691+0700][gc,heap       ] GC(459) Survivor regions: 5->5(8)
[2018-06-03T05:12:02.691+0700][gc,heap       ] GC(459) Old regions: 185->185
[2018-06-03T05:12:02.691+0700][gc,heap       ] GC(459) Humongous regions: 130->130
[2018-06-03T05:12:02.691+0700][gc,metaspace  ] GC(459) Metaspace: 36202K->36202K(1081344K)
[2018-06-03T05:12:02.691+0700][gc            ] GC(459) Pause Young (G1 Evacuation Pause) 374M->319M(1024M) 22.060ms
[2018-06-03T05:12:02.691+0700][gc,cpu        ] GC(459) User=0.06s Sys=0.00s Real=0.03s
[2018-06-03T05:12:16.522+0700][gc,start      ] GC(460) Pause Young (G1 Evacuation Pause)
[2018-06-03T05:12:16.522+0700][gc,task       ] GC(460) Using 4 workers of 4 for evacuation
[2018-06-03T05:12:16.538+0700][gc,phases     ] GC(460)   Pre Evacuate Collection Set: 0.0ms
[2018-06-03T05:12:16.538+0700][gc,phases     ] GC(460)   Evacuate Collection Set: 15.7ms
[2018-06-03T05:12:16.538+0700][gc,phases     ] GC(460)   Post Evacuate Collection Set: 0.3ms
[2018-06-03T05:12:16.538+0700][gc,phases     ] GC(460)   Other: 0.2ms
[2018-06-03T05:12:16.538+0700][gc,heap       ] GC(460) Eden regions: 55->0(56)
[2018-06-03T05:12:16.538+0700][gc,heap       ] GC(460) Survivor regions: 5->5(8)
[2018-06-03T05:12:16.538+0700][gc,heap       ] GC(460) Old regions: 185->186
[2018-06-03T05:12:16.538+0700][gc,heap       ] GC(460) Humongous regions: 130->130
[2018-06-03T05:12:16.538+0700][gc,metaspace  ] GC(460) Metaspace: 36202K->36202K(1081344K)
[2018-06-03T05:12:16.538+0700][gc            ] GC(460) Pause Young (G1 Evacuation Pause) 374M->320M(1024M) 16.403ms
[2018-06-03T05:12:16.538+0700][gc,cpu        ] GC(460) User=0.05s Sys=0.00s Real=0.01s
[2018-06-03T05:12:29.264+0700][gc,start      ] GC(461) Pause Young (G1 Evacuation Pause)
[2018-06-03T05:12:29.264+0700][gc,task       ] GC(461) Using 4 workers of 4 for evacuation
[2018-06-03T05:12:29.283+0700][gc,phases     ] GC(461)   Pre Evacuate Collection Set: 0.0ms
[2018-06-03T05:12:29.283+0700][gc,phases     ] GC(461)   Evacuate Collection Set: 17.9ms
[2018-06-03T05:12:29.283+0700][gc,phases     ] GC(461)   Post Evacuate Collection Set: 0.3ms
[2018-06-03T05:12:29.283+0700][gc,phases     ] GC(461)   Other: 0.2ms
[2018-06-03T05:12:29.283+0700][gc,heap       ] GC(461) Eden regions: 56->0(56)
[2018-06-03T05:12:29.283+0700][gc,heap       ] GC(461) Survivor regions: 5->5(8)
[2018-06-03T05:12:29.283+0700][gc,heap       ] GC(461) Old regions: 186->186
[2018-06-03T05:12:29.283+0700][gc,heap       ] GC(461) Humongous regions: 130->130
[2018-06-03T05:12:29.283+0700][gc,metaspace  ] GC(461) Metaspace: 36202K->36202K(1081344K)
[2018-06-03T05:12:29.283+0700][gc            ] GC(461) Pause Young (G1 Evacuation Pause) 376M->320M(1024M) 18.674ms
[2018-06-03T05:12:29.283+0700][gc,cpu        ] GC(461) User=0.05s Sys=0.00s Real=0.02s
[2018-06-03T05:12:42.653+0700][gc,start      ] GC(462) Pause Young (G1 Evacuation Pause)
[2018-06-03T05:12:42.653+0700][gc,task       ] GC(462) Using 4 workers of 4 for evacuation
[2018-06-03T05:12:42.672+0700][gc,phases     ] GC(462)   Pre Evacuate Collection Set: 0.0ms
[2018-06-03T05:12:42.672+0700][gc,phases     ] GC(462)   Evacuate Collection Set: 18.8ms
[2018-06-03T05:12:42.672+0700][gc,phases     ] GC(462)   Post Evacuate Collection Set: 0.3ms
[2018-06-03T05:12:42.672+0700][gc,phases     ] GC(462)   Other: 0.2ms
[2018-06-03T05:12:42.672+0700][gc,heap       ] GC(462) Eden regions: 56->0(57)
[2018-06-03T05:12:42.672+0700][gc,heap       ] GC(462) Survivor regions: 5->5(8)
[2018-06-03T05:12:42.672+0700][gc,heap       ] GC(462) Old regions: 186->187
[2018-06-03T05:12:42.672+0700][gc,heap       ] GC(462) Humongous regions: 130->130
[2018-06-03T05:12:42.672+0700][gc,metaspace  ] GC(462) Metaspace: 36202K->36202K(1081344K)
[2018-06-03T05:12:42.672+0700][gc            ] GC(462) Pause Young (G1 Evacuation Pause) 376M->321M(1024M) 19.523ms
[2018-06-03T05:12:42.672+0700][gc,cpu        ] GC(462) User=0.06s Sys=0.00s Real=0.02s
[2018-06-03T05:12:56.500+0700][gc,start      ] GC(463) Pause Young (G1 Evacuation Pause)
[2018-06-03T05:12:56.500+0700][gc,task       ] GC(463) Using 4 workers of 4 for evacuation
[2018-06-03T05:12:56.520+0700][gc,phases     ] GC(463)   Pre Evacuate Collection Set: 0.0ms
[2018-06-03T05:12:56.520+0700][gc,phases     ] GC(463)   Evacuate Collection Set: 19.0ms
[2018-06-03T05:12:56.520+0700][gc,phases     ] GC(463)   Post Evacuate Collection Set: 0.3ms
[2018-06-03T05:12:56.520+0700][gc,phases     ] GC(463)   Other: 0.2ms
[2018-06-03T05:12:56.520+0700][gc,heap       ] GC(463) Eden regions: 57->0(58)
[2018-06-03T05:12:56.520+0700][gc,heap       ] GC(463) Survivor regions: 5->5(8)
[2018-06-03T05:12:56.520+0700][gc,heap       ] GC(463) Old regions: 187->188
[2018-06-03T05:12:56.520+0700][gc,heap       ] GC(463) Humongous regions: 130->130
[2018-06-03T05:12:56.520+0700][gc,metaspace  ] GC(463) Metaspace: 36202K->36202K(1081344K)
[2018-06-03T05:12:56.520+0700][gc            ] GC(463) Pause Young (G1 Evacuation Pause) 378M->321M(1024M) 19.702ms
[2018-06-03T05:12:56.520+0700][gc,cpu        ] GC(463) User=0.05s Sys=0.01s Real=0.02s
[2018-06-03T05:13:07.356+0700][gc,start      ] GC(464) Pause Young (G1 Evacuation Pause)
[2018-06-03T05:13:07.356+0700][gc,task       ] GC(464) Using 4 workers of 4 for evacuation
[2018-06-03T05:13:07.376+0700][gc,phases     ] GC(464)   Pre Evacuate Collection Set: 0.0ms
[2018-06-03T05:13:07.376+0700][gc,phases     ] GC(464)   Evacuate Collection Set: 19.1ms
[2018-06-03T05:13:07.376+0700][gc,phases     ] GC(464)   Post Evacuate Collection Set: 0.5ms
[2018-06-03T05:13:07.376+0700][gc,phases     ] GC(464)   Other: 0.2ms
[2018-06-03T05:13:07.376+0700][gc,heap       ] GC(464) Eden regions: 46->0(54)
[2018-06-03T05:13:07.376+0700][gc,heap       ] GC(464) Survivor regions: 5->4(7)
[2018-06-03T05:13:07.376+0700][gc,heap       ] GC(464) Old regions: 188->188
[2018-06-03T05:13:07.376+0700][gc,heap       ] GC(464) Humongous regions: 130->130
[2018-06-03T05:13:07.376+0700][gc,metaspace  ] GC(464) Metaspace: 36202K->36202K(1081344K)
[2018-06-03T05:13:07.376+0700][gc            ] GC(464) Pause Young (G1 Evacuation Pause) 367M->321M(1024M) 20.144ms
[2018-06-03T05:13:07.376+0700][gc,cpu        ] GC(464) User=0.05s Sys=0.00s Real=0.02s
[2018-06-03T05:13:19.149+0700][gc,start      ] GC(465) Pause Young (G1 Evacuation Pause)
[2018-06-03T05:13:19.149+0700][gc,task       ] GC(465) Using 4 workers of 4 for evacuation
[2018-06-03T05:13:19.165+0700][gc,phases     ] GC(465)   Pre Evacuate Collection Set: 0.0ms
[2018-06-03T05:13:19.165+0700][gc,phases     ] GC(465)   Evacuate Collection Set: 15.6ms
[2018-06-03T05:13:19.165+0700][gc,phases     ] GC(465)   Post Evacuate Collection Set: 0.3ms
[2018-06-03T05:13:19.165+0700][gc,phases     ] GC(465)   Other: 0.2ms
[2018-06-03T05:13:19.165+0700][gc,heap       ] GC(465) Eden regions: 47->0(49)
[2018-06-03T05:13:19.165+0700][gc,heap       ] GC(465) Survivor regions: 4->4(7)
[2018-06-03T05:13:19.165+0700][gc,heap       ] GC(465) Old regions: 188->189
[2018-06-03T05:13:19.165+0700][gc,heap       ] GC(465) Humongous regions: 130->130
[2018-06-03T05:13:19.165+0700][gc,metaspace  ] GC(465) Metaspace: 36202K->36202K(1081344K)
[2018-06-03T05:13:19.165+0700][gc            ] GC(465) Pause Young (G1 Evacuation Pause) 368M->322M(1024M) 16.210ms
[2018-06-03T05:13:19.165+0700][gc,cpu        ] GC(465) User=0.05s Sys=0.00s Real=0.02s
[2018-06-03T05:13:30.839+0700][gc,start      ] GC(466) Pause Young (G1 Evacuation Pause)
[2018-06-03T05:13:30.839+0700][gc,task       ] GC(466) Using 4 workers of 4 for evacuation
[2018-06-03T05:13:30.853+0700][gc,phases     ] GC(466)   Pre Evacuate Collection Set: 0.0ms
[2018-06-03T05:13:30.854+0700][gc,phases     ] GC(466)   Evacuate Collection Set: 14.0ms
[2018-06-03T05:13:30.854+0700][gc,phases     ] GC(466)   Post Evacuate Collection Set: 0.3ms
[2018-06-03T05:13:30.854+0700][gc,phases     ] GC(466)   Other: 0.2ms
[2018-06-03T05:13:30.854+0700][gc,heap       ] GC(466) Eden regions: 49->0(50)
[2018-06-03T05:13:30.854+0700][gc,heap       ] GC(466) Survivor regions: 4->4(7)
[2018-06-03T05:13:30.854+0700][gc,heap       ] GC(466) Old regions: 189->189
[2018-06-03T05:13:30.854+0700][gc,heap       ] GC(466) Humongous regions: 130->130
[2018-06-03T05:13:30.854+0700][gc,metaspace  ] GC(466) Metaspace: 36202K->36202K(1081344K)
[2018-06-03T05:13:30.854+0700][gc            ] GC(466) Pause Young (G1 Evacuation Pause) 371M->322M(1024M) 14.708ms
[2018-06-03T05:13:30.854+0700][gc,cpu        ] GC(466) User=0.05s Sys=0.00s Real=0.02s
[2018-06-03T05:13:42.567+0700][gc,start      ] GC(467) Pause Young (G1 Evacuation Pause)
[2018-06-03T05:13:42.567+0700][gc,task       ] GC(467) Using 4 workers of 4 for evacuation
[2018-06-03T05:13:42.582+0700][gc,phases     ] GC(467)   Pre Evacuate Collection Set: 0.0ms
[2018-06-03T05:13:42.582+0700][gc,phases     ] GC(467)   Evacuate Collection Set: 14.0ms
[2018-06-03T05:13:42.582+0700][gc,phases     ] GC(467)   Post Evacuate Collection Set: 0.3ms
[2018-06-03T05:13:42.582+0700][gc,phases     ] GC(467)   Other: 0.2ms
[2018-06-03T05:13:42.582+0700][gc,heap       ] GC(467) Eden regions: 50->0(52)
[2018-06-03T05:13:42.582+0700][gc,heap       ] GC(467) Survivor regions: 4->4(7)
[2018-06-03T05:13:42.582+0700][gc,heap       ] GC(467) Old regions: 189->190
[2018-06-03T05:13:42.582+0700][gc,heap       ] GC(467) Humongous regions: 130->130
[2018-06-03T05:13:42.582+0700][gc,metaspace  ] GC(467) Metaspace: 36202K->36202K(1081344K)
[2018-06-03T05:13:42.582+0700][gc            ] GC(467) Pause Young (G1 Evacuation Pause) 372M->322M(1024M) 14.646ms
[2018-06-03T05:13:42.582+0700][gc,cpu        ] GC(467) User=0.05s Sys=0.00s Real=0.02s
[2018-06-03T05:13:54.661+0700][gc,start      ] GC(468) Pause Young (G1 Evacuation Pause)
[2018-06-03T05:13:54.661+0700][gc,task       ] GC(468) Using 4 workers of 4 for evacuation
[2018-06-03T05:13:54.679+0700][gc,phases     ] GC(468)   Pre Evacuate Collection Set: 0.0ms
[2018-06-03T05:13:54.679+0700][gc,phases     ] GC(468)   Evacuate Collection Set: 17.5ms
[2018-06-03T05:13:54.679+0700][gc,phases     ] GC(468)   Post Evacuate Collection Set: 0.4ms
[2018-06-03T05:13:54.679+0700][gc,phases     ] GC(468)   Other: 0.2ms
[2018-06-03T05:13:54.679+0700][gc,heap       ] GC(468) Eden regions: 52->0(52)
[2018-06-03T05:13:54.679+0700][gc,heap       ] GC(468) Survivor regions: 4->4(7)
[2018-06-03T05:13:54.679+0700][gc,heap       ] GC(468) Old regions: 190->190
[2018-06-03T05:13:54.679+0700][gc,heap       ] GC(468) Humongous regions: 130->130
[2018-06-03T05:13:54.679+0700][gc,metaspace  ] GC(468) Metaspace: 36202K->36202K(1081344K)
[2018-06-03T05:13:54.679+0700][gc            ] GC(468) Pause Young (G1 Evacuation Pause) 374M->323M(1024M) 18.339ms
[2018-06-03T05:13:54.679+0700][gc,cpu        ] GC(468) User=0.06s Sys=0.00s Real=0.01s
[2018-06-03T05:14:04.967+0700][gc,start      ] GC(469) Pause Young (G1 Evacuation Pause)
[2018-06-03T05:14:04.967+0700][gc,task       ] GC(469) Using 4 workers of 4 for evacuation
[2018-06-03T05:14:04.986+0700][gc,phases     ] GC(469)   Pre Evacuate Collection Set: 0.0ms
[2018-06-03T05:14:04.986+0700][gc,phases     ] GC(469)   Evacuate Collection Set: 18.5ms
[2018-06-03T05:14:04.986+0700][gc,phases     ] GC(469)   Post Evacuate Collection Set: 0.3ms
[2018-06-03T05:14:04.986+0700][gc,phases     ] GC(469)   Other: 0.2ms
[2018-06-03T05:14:04.986+0700][gc,heap       ] GC(469) Eden regions: 47->0(51)
[2018-06-03T05:14:04.986+0700][gc,heap       ] GC(469) Survivor regions: 4->4(7)
[2018-06-03T05:14:04.986+0700][gc,heap       ] GC(469) Old regions: 190->191
[2018-06-03T05:14:04.986+0700][gc,heap       ] GC(469) Humongous regions: 130->130
[2018-06-03T05:14:04.986+0700][gc,metaspace  ] GC(469) Metaspace: 36202K->36202K(1081344K)
[2018-06-03T05:14:04.986+0700][gc            ] GC(469) Pause Young (G1 Evacuation Pause) 370M->324M(1024M) 19.220ms
[2018-06-03T05:14:04.986+0700][gc,cpu        ] GC(469) User=0.06s Sys=0.00s Real=0.02s
[2018-06-03T05:14:17.234+0700][gc,start      ] GC(470) Pause Young (G1 Evacuation Pause)
[2018-06-03T05:14:17.234+0700][gc,task       ] GC(470) Using 4 workers of 4 for evacuation
[2018-06-03T05:14:17.253+0700][gc,phases     ] GC(470)   Pre Evacuate Collection Set: 0.0ms
[2018-06-03T05:14:17.253+0700][gc,phases     ] GC(470)   Evacuate Collection Set: 18.2ms
[2018-06-03T05:14:17.253+0700][gc,phases     ] GC(470)   Post Evacuate Collection Set: 0.3ms
[2018-06-03T05:14:17.253+0700][gc,phases     ] GC(470)   Other: 0.2ms
[2018-06-03T05:14:17.253+0700][gc,heap       ] GC(470) Eden regions: 47->0(50)
[2018-06-03T05:14:17.253+0700][gc,heap       ] GC(470) Survivor regions: 4->4(7)
[2018-06-03T05:14:17.253+0700][gc,heap       ] GC(470) Old regions: 191->191
[2018-06-03T05:14:17.253+0700][gc,heap       ] GC(470) Humongous regions: 130->130
[2018-06-03T05:14:17.253+0700][gc,metaspace  ] GC(470) Metaspace: 36202K->36202K(1081344K)
[2018-06-03T05:14:17.253+0700][gc            ] GC(470) Pause Young (G1 Evacuation Pause) 371M->324M(1024M) 18.907ms
[2018-06-03T05:14:17.253+0700][gc,cpu        ] GC(470) User=0.06s Sys=0.00s Real=0.02s
[2018-06-03T05:14:28.989+0700][gc,start      ] GC(471) Pause Young (G1 Evacuation Pause)
[2018-06-03T05:14:28.989+0700][gc,task       ] GC(471) Using 4 workers of 4 for evacuation
[2018-06-03T05:14:29.007+0700][gc,phases     ] GC(471)   Pre Evacuate Collection Set: 0.0ms
[2018-06-03T05:14:29.007+0700][gc,phases     ] GC(471)   Evacuate Collection Set: 17.9ms
[2018-06-03T05:14:29.007+0700][gc,phases     ] GC(471)   Post Evacuate Collection Set: 0.3ms
[2018-06-03T05:14:29.007+0700][gc,phases     ] GC(471)   Other: 0.2ms
[2018-06-03T05:14:29.007+0700][gc,heap       ] GC(471) Eden regions: 50->0(51)
[2018-06-03T05:14:29.007+0700][gc,heap       ] GC(471) Survivor regions: 4->4(7)
[2018-06-03T05:14:29.008+0700][gc,heap       ] GC(471) Old regions: 191->191
[2018-06-03T05:14:29.008+0700][gc,heap       ] GC(471) Humongous regions: 130->130
[2018-06-03T05:14:29.008+0700][gc,metaspace  ] GC(471) Metaspace: 36202K->36202K(1081344K)
[2018-06-03T05:14:29.008+0700][gc            ] GC(471) Pause Young (G1 Evacuation Pause) 374M->324M(1024M) 18.561ms
[2018-06-03T05:14:29.008+0700][gc,cpu        ] GC(471) User=0.05s Sys=0.00s Real=0.02s
[2018-06-03T05:14:40.830+0700][gc,start      ] GC(472) Pause Young (G1 Evacuation Pause)
[2018-06-03T05:14:40.830+0700][gc,task       ] GC(472) Using 4 workers of 4 for evacuation
[2018-06-03T05:14:40.846+0700][gc,phases     ] GC(472)   Pre Evacuate Collection Set: 0.1ms
[2018-06-03T05:14:40.847+0700][gc,phases     ] GC(472)   Evacuate Collection Set: 16.3ms
[2018-06-03T05:14:40.847+0700][gc,phases     ] GC(472)   Post Evacuate Collection Set: 0.2ms
[2018-06-03T05:14:40.847+0700][gc,phases     ] GC(472)   Other: 0.4ms
[2018-06-03T05:14:40.847+0700][gc,heap       ] GC(472) Eden regions: 51->0(52)
[2018-06-03T05:14:40.847+0700][gc,heap       ] GC(472) Survivor regions: 4->5(7)
[2018-06-03T05:14:40.847+0700][gc,heap       ] GC(472) Old regions: 191->192
[2018-06-03T05:14:40.847+0700][gc,heap       ] GC(472) Humongous regions: 130->130
[2018-06-03T05:14:40.847+0700][gc,metaspace  ] GC(472) Metaspace: 36202K->36202K(1081344K)
[2018-06-03T05:14:40.847+0700][gc            ] GC(472) Pause Young (G1 Evacuation Pause) 375M->325M(1024M) 17.268ms
[2018-06-03T05:14:40.847+0700][gc,cpu        ] GC(472) User=0.06s Sys=0.00s Real=0.01s
[2018-06-03T05:14:52.443+0700][gc,start      ] GC(473) Pause Young (G1 Evacuation Pause)
[2018-06-03T05:14:52.445+0700][gc,task       ] GC(473) Using 4 workers of 4 for evacuation
[2018-06-03T05:14:52.464+0700][gc,phases     ] GC(473)   Pre Evacuate Collection Set: 0.0ms
[2018-06-03T05:14:52.464+0700][gc,phases     ] GC(473)   Evacuate Collection Set: 18.4ms
[2018-06-03T05:14:52.464+0700][gc,phases     ] GC(473)   Post Evacuate Collection Set: 0.4ms
[2018-06-03T05:14:52.464+0700][gc,phases     ] GC(473)   Other: 2.2ms
[2018-06-03T05:14:52.464+0700][gc,heap       ] GC(473) Eden regions: 49->0(51)
[2018-06-03T05:14:52.464+0700][gc,heap       ] GC(473) Survivor regions: 5->4(7)
[2018-06-03T05:14:52.464+0700][gc,heap       ] GC(473) Old regions: 192->192
[2018-06-03T05:14:52.464+0700][gc,heap       ] GC(473) Humongous regions: 130->130
[2018-06-03T05:14:52.464+0700][gc,metaspace  ] GC(473) Metaspace: 36202K->36202K(1081344K)
[2018-06-03T05:14:52.464+0700][gc            ] GC(473) Pause Young (G1 Evacuation Pause) 374M->325M(1024M) 21.365ms
[2018-06-03T05:14:52.465+0700][gc,cpu        ] GC(473) User=0.05s Sys=0.00s Real=0.02s
[2018-06-03T05:15:03.306+0700][gc,start      ] GC(474) Pause Young (G1 Evacuation Pause)
[2018-06-03T05:15:03.308+0700][gc,task       ] GC(474) Using 4 workers of 4 for evacuation
[2018-06-03T05:15:03.327+0700][gc,phases     ] GC(474)   Pre Evacuate Collection Set: 0.0ms
[2018-06-03T05:15:03.328+0700][gc,phases     ] GC(474)   Evacuate Collection Set: 19.0ms
[2018-06-03T05:15:03.328+0700][gc,phases     ] GC(474)   Post Evacuate Collection Set: 0.3ms
[2018-06-03T05:15:03.328+0700][gc,phases     ] GC(474)   Other: 2.3ms
[2018-06-03T05:15:03.328+0700][gc,heap       ] GC(474) Eden regions: 47->0(49)
[2018-06-03T05:15:03.328+0700][gc,heap       ] GC(474) Survivor regions: 4->4(7)
[2018-06-03T05:15:03.328+0700][gc,heap       ] GC(474) Old regions: 192->192
[2018-06-03T05:15:03.328+0700][gc,heap       ] GC(474) Humongous regions: 130->130
[2018-06-03T05:15:03.328+0700][gc,metaspace  ] GC(474) Metaspace: 36202K->36202K(1081344K)
[2018-06-03T05:15:03.328+0700][gc            ] GC(474) Pause Young (G1 Evacuation Pause) 372M->325M(1024M) 21.761ms
[2018-06-03T05:15:03.328+0700][gc,cpu        ] GC(474) User=0.06s Sys=0.00s Real=0.02s
[2018-06-03T05:15:14.657+0700][gc,start      ] GC(475) Pause Young (G1 Evacuation Pause)
[2018-06-03T05:15:14.657+0700][gc,task       ] GC(475) Using 4 workers of 4 for evacuation
[2018-06-03T05:15:14.676+0700][gc,phases     ] GC(475)   Pre Evacuate Collection Set: 0.0ms
[2018-06-03T05:15:14.676+0700][gc,phases     ] GC(475)   Evacuate Collection Set: 18.7ms
[2018-06-03T05:15:14.676+0700][gc,phases     ] GC(475)   Post Evacuate Collection Set: 0.2ms
[2018-06-03T05:15:14.676+0700][gc,phases     ] GC(475)   Other: 0.2ms
[2018-06-03T05:15:14.676+0700][gc,heap       ] GC(475) Eden regions: 47->0(48)
[2018-06-03T05:15:14.676+0700][gc,heap       ] GC(475) Survivor regions: 4->4(7)
[2018-06-03T05:15:14.676+0700][gc,heap       ] GC(475) Old regions: 192->193
[2018-06-03T05:15:14.677+0700][gc,heap       ] GC(475) Humongous regions: 130->130
[2018-06-03T05:15:14.677+0700][gc,metaspace  ] GC(475) Metaspace: 36202K->36202K(1081344K)
[2018-06-03T05:15:14.677+0700][gc            ] GC(475) Pause Young (G1 Evacuation Pause) 372M->326M(1024M) 19.434ms
[2018-06-03T05:15:14.677+0700][gc,cpu        ] GC(475) User=0.05s Sys=0.00s Real=0.02s
[2018-06-03T05:15:26.461+0700][gc,start      ] GC(476) Pause Young (G1 Evacuation Pause)
[2018-06-03T05:15:26.461+0700][gc,task       ] GC(476) Using 4 workers of 4 for evacuation
[2018-06-03T05:15:26.476+0700][gc,phases     ] GC(476)   Pre Evacuate Collection Set: 0.0ms
[2018-06-03T05:15:26.476+0700][gc,phases     ] GC(476)   Evacuate Collection Set: 14.5ms
[2018-06-03T05:15:26.476+0700][gc,phases     ] GC(476)   Post Evacuate Collection Set: 0.3ms
[2018-06-03T05:15:26.476+0700][gc,phases     ] GC(476)   Other: 0.2ms
[2018-06-03T05:15:26.476+0700][gc,heap       ] GC(476) Eden regions: 48->0(48)
[2018-06-03T05:15:26.476+0700][gc,heap       ] GC(476) Survivor regions: 4->4(7)
[2018-06-03T05:15:26.476+0700][gc,heap       ] GC(476) Old regions: 193->193
[2018-06-03T05:15:26.477+0700][gc,heap       ] GC(476) Humongous regions: 130->130
[2018-06-03T05:15:26.477+0700][gc,metaspace  ] GC(476) Metaspace: 36202K->36202K(1081344K)
[2018-06-03T05:15:26.477+0700][gc            ] GC(476) Pause Young (G1 Evacuation Pause) 374M->326M(1024M) 15.231ms
[2018-06-03T05:15:26.477+0700][gc,cpu        ] GC(476) User=0.05s Sys=0.00s Real=0.01s
[2018-06-03T05:15:37.007+0700][gc,start      ] GC(477) Pause Young (G1 Evacuation Pause)
[2018-06-03T05:15:37.007+0700][gc,task       ] GC(477) Using 4 workers of 4 for evacuation
[2018-06-03T05:15:37.026+0700][gc,phases     ] GC(477)   Pre Evacuate Collection Set: 0.0ms
[2018-06-03T05:15:37.026+0700][gc,phases     ] GC(477)   Evacuate Collection Set: 18.7ms
[2018-06-03T05:15:37.026+0700][gc,phases     ] GC(477)   Post Evacuate Collection Set: 0.3ms
[2018-06-03T05:15:37.026+0700][gc,phases     ] GC(477)   Other: 0.2ms
[2018-06-03T05:15:37.026+0700][gc,heap       ] GC(477) Eden regions: 48->0(49)
[2018-06-03T05:15:37.026+0700][gc,heap       ] GC(477) Survivor regions: 4->4(7)
[2018-06-03T05:15:37.026+0700][gc,heap       ] GC(477) Old regions: 193->194
[2018-06-03T05:15:37.026+0700][gc,heap       ] GC(477) Humongous regions: 130->130
[2018-06-03T05:15:37.026+0700][gc,metaspace  ] GC(477) Metaspace: 36202K->36202K(1081344K)
[2018-06-03T05:15:37.026+0700][gc            ] GC(477) Pause Young (G1 Evacuation Pause) 374M->327M(1024M) 19.605ms
[2018-06-03T05:15:37.026+0700][gc,cpu        ] GC(477) User=0.05s Sys=0.00s Real=0.02s
[2018-06-03T05:15:48.761+0700][gc,start      ] GC(478) Pause Young (G1 Evacuation Pause)
[2018-06-03T05:15:48.763+0700][gc,task       ] GC(478) Using 4 workers of 4 for evacuation
[2018-06-03T05:15:48.778+0700][gc,phases     ] GC(478)   Pre Evacuate Collection Set: 0.0ms
[2018-06-03T05:15:48.778+0700][gc,phases     ] GC(478)   Evacuate Collection Set: 14.3ms
[2018-06-03T05:15:48.778+0700][gc,phases     ] GC(478)   Post Evacuate Collection Set: 0.3ms
[2018-06-03T05:15:48.778+0700][gc,phases     ] GC(478)   Other: 2.1ms
[2018-06-03T05:15:48.778+0700][gc,heap       ] GC(478) Eden regions: 47->0(49)
[2018-06-03T05:15:48.778+0700][gc,heap       ] GC(478) Survivor regions: 4->4(7)
[2018-06-03T05:15:48.778+0700][gc,heap       ] GC(478) Old regions: 194->194
[2018-06-03T05:15:48.778+0700][gc,heap       ] GC(478) Humongous regions: 130->130
[2018-06-03T05:15:48.778+0700][gc,metaspace  ] GC(478) Metaspace: 36202K->36202K(1081344K)
[2018-06-03T05:15:48.778+0700][gc            ] GC(478) Pause Young (G1 Evacuation Pause) 374M->327M(1024M) 16.888ms
[2018-06-03T05:15:48.778+0700][gc,cpu        ] GC(478) User=0.06s Sys=0.00s Real=0.01s
[2018-06-03T05:15:59.733+0700][gc,start      ] GC(479) Pause Young (G1 Evacuation Pause)
[2018-06-03T05:15:59.733+0700][gc,task       ] GC(479) Using 4 workers of 4 for evacuation
[2018-06-03T05:15:59.759+0700][gc,mmu        ] GC(479) MMU target violated: 21.0ms (20.0ms/21.0ms)
[2018-06-03T05:15:59.759+0700][gc,phases     ] GC(479)   Pre Evacuate Collection Set: 0.0ms
[2018-06-03T05:15:59.759+0700][gc,phases     ] GC(479)   Evacuate Collection Set: 25.3ms
[2018-06-03T05:15:59.759+0700][gc,phases     ] GC(479)   Post Evacuate Collection Set: 0.3ms
[2018-06-03T05:15:59.759+0700][gc,phases     ] GC(479)   Other: 0.5ms
[2018-06-03T05:15:59.759+0700][gc,heap       ] GC(479) Eden regions: 47->0(47)
[2018-06-03T05:15:59.759+0700][gc,heap       ] GC(479) Survivor regions: 4->4(7)
[2018-06-03T05:15:59.759+0700][gc,heap       ] GC(479) Old regions: 194->195
[2018-06-03T05:15:59.759+0700][gc,heap       ] GC(479) Humongous regions: 130->130
[2018-06-03T05:15:59.759+0700][gc,metaspace  ] GC(479) Metaspace: 36202K->36202K(1081344K)
[2018-06-03T05:15:59.759+0700][gc            ] GC(479) Pause Young (G1 Evacuation Pause) 374M->328M(1024M) 26.232ms
[2018-06-03T05:15:59.759+0700][gc,cpu        ] GC(479) User=0.07s Sys=0.00s Real=0.02s
[2018-06-03T05:16:11.057+0700][gc,start      ] GC(480) Pause Young (G1 Evacuation Pause)
[2018-06-03T05:16:11.057+0700][gc,task       ] GC(480) Using 4 workers of 4 for evacuation
[2018-06-03T05:16:11.076+0700][gc,phases     ] GC(480)   Pre Evacuate Collection Set: 0.0ms
[2018-06-03T05:16:11.076+0700][gc,phases     ] GC(480)   Evacuate Collection Set: 18.5ms
[2018-06-03T05:16:11.076+0700][gc,phases     ] GC(480)   Post Evacuate Collection Set: 0.3ms
[2018-06-03T05:16:11.076+0700][gc,phases     ] GC(480)   Other: 0.2ms
[2018-06-03T05:16:11.076+0700][gc,heap       ] GC(480) Eden regions: 47->0(47)
[2018-06-03T05:16:11.076+0700][gc,heap       ] GC(480) Survivor regions: 4->4(7)
[2018-06-03T05:16:11.076+0700][gc,heap       ] GC(480) Old regions: 195->195
[2018-06-03T05:16:11.076+0700][gc,heap       ] GC(480) Humongous regions: 130->130
[2018-06-03T05:16:11.076+0700][gc,metaspace  ] GC(480) Metaspace: 36202K->36202K(1081344K)
[2018-06-03T05:16:11.076+0700][gc            ] GC(480) Pause Young (G1 Evacuation Pause) 375M->328M(1024M) 19.328ms
[2018-06-03T05:16:11.076+0700][gc,cpu        ] GC(480) User=0.05s Sys=0.00s Real=0.02s
[2018-06-03T05:16:22.593+0700][gc,start      ] GC(481) Pause Young (G1 Evacuation Pause)
[2018-06-03T05:16:22.595+0700][gc,task       ] GC(481) Using 4 workers of 4 for evacuation
[2018-06-03T05:16:22.610+0700][gc,phases     ] GC(481)   Pre Evacuate Collection Set: 0.0ms
[2018-06-03T05:16:22.610+0700][gc,phases     ] GC(481)   Evacuate Collection Set: 14.4ms
[2018-06-03T05:16:22.610+0700][gc,phases     ] GC(481)   Post Evacuate Collection Set: 0.3ms
[2018-06-03T05:16:22.610+0700][gc,phases     ] GC(481)   Other: 2.2ms
[2018-06-03T05:16:22.610+0700][gc,heap       ] GC(481) Eden regions: 47->0(48)
[2018-06-03T05:16:22.610+0700][gc,heap       ] GC(481) Survivor regions: 4->4(7)
[2018-06-03T05:16:22.610+0700][gc,heap       ] GC(481) Old regions: 195->195
[2018-06-03T05:16:22.610+0700][gc,heap       ] GC(481) Humongous regions: 130->130
[2018-06-03T05:16:22.610+0700][gc,metaspace  ] GC(481) Metaspace: 36202K->36202K(1081344K)
[2018-06-03T05:16:22.610+0700][gc            ] GC(481) Pause Young (G1 Evacuation Pause) 375M->328M(1024M) 17.085ms
[2018-06-03T05:16:22.610+0700][gc,cpu        ] GC(481) User=0.05s Sys=0.00s Real=0.02s
[2018-06-03T05:16:33.393+0700][gc,start      ] GC(482) Pause Young (G1 Evacuation Pause)
[2018-06-03T05:16:33.393+0700][gc,task       ] GC(482) Using 4 workers of 4 for evacuation
[2018-06-03T05:16:33.407+0700][gc,phases     ] GC(482)   Pre Evacuate Collection Set: 0.0ms
[2018-06-03T05:16:33.407+0700][gc,phases     ] GC(482)   Evacuate Collection Set: 13.3ms
[2018-06-03T05:16:33.407+0700][gc,phases     ] GC(482)   Post Evacuate Collection Set: 0.3ms
[2018-06-03T05:16:33.407+0700][gc,phases     ] GC(482)   Other: 0.2ms
[2018-06-03T05:16:33.407+0700][gc,heap       ] GC(482) Eden regions: 48->0(49)
[2018-06-03T05:16:33.407+0700][gc,heap       ] GC(482) Survivor regions: 4->4(7)
[2018-06-03T05:16:33.407+0700][gc,heap       ] GC(482) Old regions: 195->196
[2018-06-03T05:16:33.407+0700][gc,heap       ] GC(482) Humongous regions: 130->130
[2018-06-03T05:16:33.407+0700][gc,metaspace  ] GC(482) Metaspace: 36202K->36202K(1081344K)
[2018-06-03T05:16:33.407+0700][gc            ] GC(482) Pause Young (G1 Evacuation Pause) 376M->329M(1024M) 14.033ms
[2018-06-03T05:16:33.407+0700][gc,cpu        ] GC(482) User=0.06s Sys=0.00s Real=0.01s
[2018-06-03T05:16:44.880+0700][gc,start      ] GC(483) Pause Young (G1 Evacuation Pause)
[2018-06-03T05:16:44.880+0700][gc,task       ] GC(483) Using 4 workers of 4 for evacuation
[2018-06-03T05:16:44.899+0700][gc,phases     ] GC(483)   Pre Evacuate Collection Set: 0.0ms
[2018-06-03T05:16:44.899+0700][gc,phases     ] GC(483)   Evacuate Collection Set: 18.3ms
[2018-06-03T05:16:44.899+0700][gc,phases     ] GC(483)   Post Evacuate Collection Set: 0.3ms
[2018-06-03T05:16:44.899+0700][gc,phases     ] GC(483)   Other: 0.3ms
[2018-06-03T05:16:44.899+0700][gc,heap       ] GC(483) Eden regions: 49->0(49)
[2018-06-03T05:16:44.899+0700][gc,heap       ] GC(483) Survivor regions: 4->4(7)
[2018-06-03T05:16:44.899+0700][gc,heap       ] GC(483) Old regions: 196->196
[2018-06-03T05:16:44.899+0700][gc,heap       ] GC(483) Humongous regions: 130->130
[2018-06-03T05:16:44.899+0700][gc,metaspace  ] GC(483) Metaspace: 36202K->36202K(1081344K)
[2018-06-03T05:16:44.899+0700][gc            ] GC(483) Pause Young (G1 Evacuation Pause) 378M->329M(1024M) 19.163ms
[2018-06-03T05:16:44.899+0700][gc,cpu        ] GC(483) User=0.05s Sys=0.01s Real=0.01s
[2018-06-03T05:16:56.539+0700][gc,start      ] GC(484) Pause Young (G1 Evacuation Pause)
[2018-06-03T05:16:56.539+0700][gc,task       ] GC(484) Using 4 workers of 4 for evacuation
[2018-06-03T05:16:56.563+0700][gc,mmu        ] GC(484) MMU target violated: 21.0ms (20.0ms/21.0ms)
[2018-06-03T05:16:56.563+0700][gc,phases     ] GC(484)   Pre Evacuate Collection Set: 0.0ms
[2018-06-03T05:16:56.563+0700][gc,phases     ] GC(484)   Evacuate Collection Set: 23.1ms
[2018-06-03T05:16:56.563+0700][gc,phases     ] GC(484)   Post Evacuate Collection Set: 0.4ms
[2018-06-03T05:16:56.563+0700][gc,phases     ] GC(484)   Other: 0.3ms
[2018-06-03T05:16:56.563+0700][gc,heap       ] GC(484) Eden regions: 49->0(48)
[2018-06-03T05:16:56.563+0700][gc,heap       ] GC(484) Survivor regions: 4->4(7)
[2018-06-03T05:16:56.563+0700][gc,heap       ] GC(484) Old regions: 196->197
[2018-06-03T05:16:56.563+0700][gc,heap       ] GC(484) Humongous regions: 130->130
[2018-06-03T05:16:56.563+0700][gc,metaspace  ] GC(484) Metaspace: 36202K->36202K(1081344K)
[2018-06-03T05:16:56.563+0700][gc            ] GC(484) Pause Young (G1 Evacuation Pause) 378M->330M(1024M) 24.048ms
[2018-06-03T05:16:56.563+0700][gc,cpu        ] GC(484) User=0.06s Sys=0.00s Real=0.03s
[2018-06-03T05:17:08.652+0700][gc,start      ] GC(485) Pause Young (G1 Evacuation Pause)
[2018-06-03T05:17:08.652+0700][gc,task       ] GC(485) Using 4 workers of 4 for evacuation
[2018-06-03T05:17:08.674+0700][gc,mmu        ] GC(485) MMU target violated: 21.0ms (20.0ms/21.0ms)
[2018-06-03T05:17:08.674+0700][gc,phases     ] GC(485)   Pre Evacuate Collection Set: 0.1ms
[2018-06-03T05:17:08.674+0700][gc,phases     ] GC(485)   Evacuate Collection Set: 21.4ms
[2018-06-03T05:17:08.674+0700][gc,phases     ] GC(485)   Post Evacuate Collection Set: 0.2ms
[2018-06-03T05:17:08.674+0700][gc,phases     ] GC(485)   Other: 0.4ms
[2018-06-03T05:17:08.674+0700][gc,heap       ] GC(485) Eden regions: 48->0(48)
[2018-06-03T05:17:08.674+0700][gc,heap       ] GC(485) Survivor regions: 4->4(7)
[2018-06-03T05:17:08.674+0700][gc,heap       ] GC(485) Old regions: 197->197
[2018-06-03T05:17:08.674+0700][gc,heap       ] GC(485) Humongous regions: 130->130
[2018-06-03T05:17:08.674+0700][gc,metaspace  ] GC(485) Metaspace: 36202K->36202K(1081344K)
[2018-06-03T05:17:08.674+0700][gc            ] GC(485) Pause Young (G1 Evacuation Pause) 378M->330M(1024M) 22.182ms
[2018-06-03T05:17:08.674+0700][gc,cpu        ] GC(485) User=0.05s Sys=0.00s Real=0.02s
[2018-06-03T05:17:18.850+0700][gc,start      ] GC(486) Pause Young (G1 Evacuation Pause)
[2018-06-03T05:17:18.850+0700][gc,task       ] GC(486) Using 4 workers of 4 for evacuation
[2018-06-03T05:17:18.871+0700][gc,mmu        ] GC(486) MMU target violated: 21.0ms (20.0ms/21.0ms)
[2018-06-03T05:17:18.871+0700][gc,phases     ] GC(486)   Pre Evacuate Collection Set: 0.0ms
[2018-06-03T05:17:18.871+0700][gc,phases     ] GC(486)   Evacuate Collection Set: 21.1ms
[2018-06-03T05:17:18.871+0700][gc,phases     ] GC(486)   Post Evacuate Collection Set: 0.2ms
[2018-06-03T05:17:18.871+0700][gc,phases     ] GC(486)   Other: 0.3ms
[2018-06-03T05:17:18.871+0700][gc,heap       ] GC(486) Eden regions: 47->0(47)
[2018-06-03T05:17:18.871+0700][gc,heap       ] GC(486) Survivor regions: 4->4(7)
[2018-06-03T05:17:18.871+0700][gc,heap       ] GC(486) Old regions: 197->197
[2018-06-03T05:17:18.871+0700][gc,heap       ] GC(486) Humongous regions: 130->130
[2018-06-03T05:17:18.871+0700][gc,metaspace  ] GC(486) Metaspace: 36202K->36202K(1081344K)
[2018-06-03T05:17:18.871+0700][gc            ] GC(486) Pause Young (G1 Evacuation Pause) 377M->330M(1024M) 21.809ms
[2018-06-03T05:17:18.871+0700][gc,cpu        ] GC(486) User=0.05s Sys=0.00s Real=0.02s
[2018-06-03T05:17:30.455+0700][gc,start      ] GC(487) Pause Young (G1 Evacuation Pause)
[2018-06-03T05:17:30.457+0700][gc,task       ] GC(487) Using 4 workers of 4 for evacuation
[2018-06-03T05:17:30.476+0700][gc,phases     ] GC(487)   Pre Evacuate Collection Set: 0.0ms
[2018-06-03T05:17:30.476+0700][gc,phases     ] GC(487)   Evacuate Collection Set: 18.8ms
[2018-06-03T05:17:30.477+0700][gc,phases     ] GC(487)   Post Evacuate Collection Set: 0.2ms
[2018-06-03T05:17:30.477+0700][gc,phases     ] GC(487)   Other: 2.3ms
[2018-06-03T05:17:30.477+0700][gc,heap       ] GC(487) Eden regions: 47->0(47)
[2018-06-03T05:17:30.477+0700][gc,heap       ] GC(487) Survivor regions: 4->4(7)
[2018-06-03T05:17:30.477+0700][gc,heap       ] GC(487) Old regions: 197->198
[2018-06-03T05:17:30.477+0700][gc,heap       ] GC(487) Humongous regions: 130->130
[2018-06-03T05:17:30.477+0700][gc,metaspace  ] GC(487) Metaspace: 36202K->36202K(1081344K)
[2018-06-03T05:17:30.477+0700][gc            ] GC(487) Pause Young (G1 Evacuation Pause) 377M->331M(1024M) 21.545ms
[2018-06-03T05:17:30.477+0700][gc,cpu        ] GC(487) User=0.05s Sys=0.01s Real=0.02s
[2018-06-03T05:17:41.566+0700][gc,start      ] GC(488) Pause Young (G1 Evacuation Pause)
[2018-06-03T05:17:41.568+0700][gc,task       ] GC(488) Using 4 workers of 4 for evacuation
[2018-06-03T05:17:41.595+0700][gc,mmu        ] GC(488) MMU target violated: 21.0ms (20.0ms/21.0ms)
[2018-06-03T05:17:41.595+0700][gc,phases     ] GC(488)   Pre Evacuate Collection Set: 0.1ms
[2018-06-03T05:17:41.595+0700][gc,phases     ] GC(488)   Evacuate Collection Set: 26.1ms
[2018-06-03T05:17:41.595+0700][gc,phases     ] GC(488)   Post Evacuate Collection Set: 0.4ms
[2018-06-03T05:17:41.595+0700][gc,phases     ] GC(488)   Other: 2.2ms
[2018-06-03T05:17:41.595+0700][gc,heap       ] GC(488) Eden regions: 47->0(47)
[2018-06-03T05:17:41.595+0700][gc,heap       ] GC(488) Survivor regions: 4->4(7)
[2018-06-03T05:17:41.595+0700][gc,heap       ] GC(488) Old regions: 198->198
[2018-06-03T05:17:41.595+0700][gc,heap       ] GC(488) Humongous regions: 130->130
[2018-06-03T05:17:41.595+0700][gc,metaspace  ] GC(488) Metaspace: 36202K->36202K(1081344K)
[2018-06-03T05:17:41.595+0700][gc            ] GC(488) Pause Young (G1 Evacuation Pause) 378M->331M(1024M) 28.912ms
[2018-06-03T05:17:41.595+0700][gc,cpu        ] GC(488) User=0.06s Sys=0.00s Real=0.03s
[2018-06-03T05:17:53.145+0700][gc,start      ] GC(489) Pause Young (G1 Evacuation Pause)
[2018-06-03T05:17:53.147+0700][gc,task       ] GC(489) Using 4 workers of 4 for evacuation
[2018-06-03T05:17:53.166+0700][gc,phases     ] GC(489)   Pre Evacuate Collection Set: 0.1ms
[2018-06-03T05:17:53.166+0700][gc,phases     ] GC(489)   Evacuate Collection Set: 17.7ms
[2018-06-03T05:17:53.166+0700][gc,phases     ] GC(489)   Post Evacuate Collection Set: 0.3ms
[2018-06-03T05:17:53.166+0700][gc,phases     ] GC(489)   Other: 2.4ms
[2018-06-03T05:17:53.166+0700][gc,heap       ] GC(489) Eden regions: 47->0(47)
[2018-06-03T05:17:53.166+0700][gc,heap       ] GC(489) Survivor regions: 4->4(7)
[2018-06-03T05:17:53.166+0700][gc,heap       ] GC(489) Old regions: 198->199
[2018-06-03T05:17:53.166+0700][gc,heap       ] GC(489) Humongous regions: 130->130
[2018-06-03T05:17:53.166+0700][gc,metaspace  ] GC(489) Metaspace: 36202K->36202K(1081344K)
[2018-06-03T05:17:53.166+0700][gc            ] GC(489) Pause Young (G1 Evacuation Pause) 378M->332M(1024M) 20.585ms
[2018-06-03T05:17:53.166+0700][gc,cpu        ] GC(489) User=0.06s Sys=0.00s Real=0.02s
[2018-06-03T05:18:04.386+0700][gc,start      ] GC(490) Pause Young (G1 Evacuation Pause)
[2018-06-03T05:18:04.387+0700][gc,task       ] GC(490) Using 4 workers of 4 for evacuation
[2018-06-03T05:18:04.403+0700][gc,phases     ] GC(490)   Pre Evacuate Collection Set: 0.1ms
[2018-06-03T05:18:04.403+0700][gc,phases     ] GC(490)   Evacuate Collection Set: 15.7ms
[2018-06-03T05:18:04.403+0700][gc,phases     ] GC(490)   Post Evacuate Collection Set: 0.4ms
[2018-06-03T05:18:04.403+0700][gc,phases     ] GC(490)   Other: 0.3ms
[2018-06-03T05:18:04.403+0700][gc,heap       ] GC(490) Eden regions: 47->0(47)
[2018-06-03T05:18:04.403+0700][gc,heap       ] GC(490) Survivor regions: 4->4(7)
[2018-06-03T05:18:04.403+0700][gc,heap       ] GC(490) Old regions: 199->199
[2018-06-03T05:18:04.403+0700][gc,heap       ] GC(490) Humongous regions: 130->130
[2018-06-03T05:18:04.403+0700][gc,metaspace  ] GC(490) Metaspace: 36202K->36202K(1081344K)
[2018-06-03T05:18:04.403+0700][gc            ] GC(490) Pause Young (G1 Evacuation Pause) 379M->332M(1024M) 16.807ms
[2018-06-03T05:18:04.403+0700][gc,cpu        ] GC(490) User=0.06s Sys=0.00s Real=0.02s
[2018-06-03T05:18:14.806+0700][gc,start      ] GC(491) Pause Young (G1 Evacuation Pause)
[2018-06-03T05:18:14.806+0700][gc,task       ] GC(491) Using 4 workers of 4 for evacuation
[2018-06-03T05:18:14.828+0700][gc,mmu        ] GC(491) MMU target violated: 21.0ms (20.0ms/21.0ms)
[2018-06-03T05:18:14.828+0700][gc,phases     ] GC(491)   Pre Evacuate Collection Set: 0.0ms
[2018-06-03T05:18:14.828+0700][gc,phases     ] GC(491)   Evacuate Collection Set: 21.4ms
[2018-06-03T05:18:14.828+0700][gc,phases     ] GC(491)   Post Evacuate Collection Set: 0.3ms
[2018-06-03T05:18:14.828+0700][gc,phases     ] GC(491)   Other: 0.4ms
[2018-06-03T05:18:14.828+0700][gc,heap       ] GC(491) Eden regions: 47->0(47)
[2018-06-03T05:18:14.828+0700][gc,heap       ] GC(491) Survivor regions: 4->4(7)
[2018-06-03T05:18:14.828+0700][gc,heap       ] GC(491) Old regions: 199->199
[2018-06-03T05:18:14.828+0700][gc,heap       ] GC(491) Humongous regions: 130->130
[2018-06-03T05:18:14.828+0700][gc,metaspace  ] GC(491) Metaspace: 36202K->36202K(1081344K)
[2018-06-03T05:18:14.828+0700][gc            ] GC(491) Pause Young (G1 Evacuation Pause) 379M->332M(1024M) 22.200ms
[2018-06-03T05:18:14.828+0700][gc,cpu        ] GC(491) User=0.06s Sys=0.00s Real=0.02s
[2018-06-03T05:18:26.955+0700][gc,start      ] GC(492) Pause Young (G1 Evacuation Pause)
[2018-06-03T05:18:26.955+0700][gc,task       ] GC(492) Using 4 workers of 4 for evacuation
[2018-06-03T05:18:26.971+0700][gc,phases     ] GC(492)   Pre Evacuate Collection Set: 0.0ms
[2018-06-03T05:18:26.971+0700][gc,phases     ] GC(492)   Evacuate Collection Set: 15.9ms
[2018-06-03T05:18:26.971+0700][gc,phases     ] GC(492)   Post Evacuate Collection Set: 0.4ms
[2018-06-03T05:18:26.971+0700][gc,phases     ] GC(492)   Other: 0.2ms
[2018-06-03T05:18:26.971+0700][gc,heap       ] GC(492) Eden regions: 47->0(48)
[2018-06-03T05:18:26.971+0700][gc,heap       ] GC(492) Survivor regions: 4->4(7)
[2018-06-03T05:18:26.972+0700][gc,heap       ] GC(492) Old regions: 199->200
[2018-06-03T05:18:26.972+0700][gc,heap       ] GC(492) Humongous regions: 130->130
[2018-06-03T05:18:26.972+0700][gc,metaspace  ] GC(492) Metaspace: 36202K->36202K(1081344K)
[2018-06-03T05:18:26.972+0700][gc            ] GC(492) Pause Young (G1 Evacuation Pause) 379M->333M(1024M) 16.745ms
[2018-06-03T05:18:26.972+0700][gc,cpu        ] GC(492) User=0.05s Sys=0.00s Real=0.02s
[2018-06-03T05:18:37.297+0700][gc,start      ] GC(493) Pause Young (G1 Evacuation Pause)
[2018-06-03T05:18:37.297+0700][gc,task       ] GC(493) Using 4 workers of 4 for evacuation
[2018-06-03T05:18:37.316+0700][gc,phases     ] GC(493)   Pre Evacuate Collection Set: 0.0ms
[2018-06-03T05:18:37.316+0700][gc,phases     ] GC(493)   Evacuate Collection Set: 18.9ms
[2018-06-03T05:18:37.316+0700][gc,phases     ] GC(493)   Post Evacuate Collection Set: 0.3ms
[2018-06-03T05:18:37.316+0700][gc,phases     ] GC(493)   Other: 0.2ms
[2018-06-03T05:18:37.316+0700][gc,heap       ] GC(493) Eden regions: 48->0(48)
[2018-06-03T05:18:37.316+0700][gc,heap       ] GC(493) Survivor regions: 4->4(7)
[2018-06-03T05:18:37.317+0700][gc,heap       ] GC(493) Old regions: 200->200
[2018-06-03T05:18:37.317+0700][gc,heap       ] GC(493) Humongous regions: 130->130
[2018-06-03T05:18:37.317+0700][gc,metaspace  ] GC(493) Metaspace: 36202K->36202K(1081344K)
[2018-06-03T05:18:37.317+0700][gc            ] GC(493) Pause Young (G1 Evacuation Pause) 381M->333M(1024M) 19.583ms
[2018-06-03T05:18:37.317+0700][gc,cpu        ] GC(493) User=0.05s Sys=0.00s Real=0.02s
[2018-06-03T05:19:36.228+0700][gc,start      ] GC(494) Pause Young (G1 Evacuation Pause)
[2018-06-03T05:19:36.230+0700][gc,task       ] GC(494) Using 4 workers of 4 for evacuation
[2018-06-03T05:19:36.296+0700][gc,mmu        ] GC(494) MMU target violated: 21.0ms (20.0ms/21.0ms)
[2018-06-03T05:19:36.296+0700][gc,phases     ] GC(494)   Pre Evacuate Collection Set: 0.1ms
[2018-06-03T05:19:36.296+0700][gc,phases     ] GC(494)   Evacuate Collection Set: 64.7ms
[2018-06-03T05:19:36.296+0700][gc,phases     ] GC(494)   Post Evacuate Collection Set: 0.9ms
[2018-06-03T05:19:36.296+0700][gc,phases     ] GC(494)   Other: 2.8ms
[2018-06-03T05:19:36.296+0700][gc,heap       ] GC(494) Eden regions: 47->0(44)
[2018-06-03T05:19:36.296+0700][gc,heap       ] GC(494) Survivor regions: 4->7(7)
[2018-06-03T05:19:36.296+0700][gc,heap       ] GC(494) Old regions: 200->201
[2018-06-03T05:19:36.296+0700][gc,heap       ] GC(494) Humongous regions: 130->130
[2018-06-03T05:19:36.296+0700][gc,metaspace  ] GC(494) Metaspace: 36202K->36202K(1081344K)
[2018-06-03T05:19:36.296+0700][gc            ] GC(494) Pause Young (G1 Evacuation Pause) 380M->337M(1024M) 68.709ms
[2018-06-03T05:19:36.296+0700][gc,cpu        ] GC(494) User=0.12s Sys=0.02s Real=0.07s
