[2018-06-03T07:29:52.374+0700][gc,heap] Heap region size: 1M
[2018-06-03T07:29:52.388+0700][gc     ] Using G1
[2018-06-03T07:29:52.388+0700][gc,heap,coops] Heap address: 0x0000000780000000, size: 1024 MB, Compressed Oops mode: Zero based, Oop shift amount: 3
[2018-06-03T07:29:54.715+0700][gc,start     ] GC(0) Pause Young (G1 Evacuation Pause)
[2018-06-03T07:29:54.715+0700][gc,task      ] GC(0) Using 4 workers of 4 for evacuation
[2018-06-03T07:29:54.754+0700][gc,mmu       ] GC(0) MMU target violated: 21.0ms (20.0ms/21.0ms)
[2018-06-03T07:29:54.754+0700][gc,phases    ] GC(0)   Pre Evacuate Collection Set: 0.1ms
[2018-06-03T07:29:54.754+0700][gc,phases    ] GC(0)   Evacuate Collection Set: 31.0ms
[2018-06-03T07:29:54.754+0700][gc,phases    ] GC(0)   Post Evacuate Collection Set: 7.6ms
[2018-06-03T07:29:54.754+0700][gc,phases    ] GC(0)   Other: 0.3ms
[2018-06-03T07:29:54.754+0700][gc,heap      ] GC(0) Eden regions: 51->0(44)
[2018-06-03T07:29:54.754+0700][gc,heap      ] GC(0) Survivor regions: 0->7(7)
[2018-06-03T07:29:54.754+0700][gc,heap      ] GC(0) Old regions: 0->4
[2018-06-03T07:29:54.755+0700][gc,heap      ] GC(0) Humongous regions: 1->1
[2018-06-03T07:29:54.755+0700][gc,metaspace ] GC(0) Metaspace: 19161K->19161K(1067008K)
[2018-06-03T07:29:54.755+0700][gc           ] GC(0) Pause Young (G1 Evacuation Pause) 52M->11M(1024M) 39.291ms
[2018-06-03T07:29:54.755+0700][gc,cpu       ] GC(0) User=0.06s Sys=0.01s Real=0.04s
[2018-06-03T07:29:55.371+0700][gc,start     ] GC(1) Pause Initial Mark (Metadata GC Threshold)
[2018-06-03T07:29:55.371+0700][gc,task      ] GC(1) Using 4 workers of 4 for evacuation
[2018-06-03T07:29:55.392+0700][gc,mmu       ] GC(1) MMU target violated: 21.0ms (20.0ms/21.0ms)
[2018-06-03T07:29:55.392+0700][gc,phases    ] GC(1)   Pre Evacuate Collection Set: 0.0ms
[2018-06-03T07:29:55.392+0700][gc,phases    ] GC(1)   Evacuate Collection Set: 20.4ms
[2018-06-03T07:29:55.392+0700][gc,phases    ] GC(1)   Post Evacuate Collection Set: 1.0ms
[2018-06-03T07:29:55.392+0700][gc,phases    ] GC(1)   Other: 0.3ms
[2018-06-03T07:29:55.392+0700][gc,heap      ] GC(1) Eden regions: 8->0(49)
[2018-06-03T07:29:55.392+0700][gc,heap      ] GC(1) Survivor regions: 7->2(7)
[2018-06-03T07:29:55.392+0700][gc,heap      ] GC(1) Old regions: 4->10
[2018-06-03T07:29:55.393+0700][gc,heap      ] GC(1) Humongous regions: 1->1
[2018-06-03T07:29:55.393+0700][gc,metaspace ] GC(1) Metaspace: 20604K->20604K(1069056K)
[2018-06-03T07:29:55.393+0700][gc           ] GC(1) Pause Initial Mark (Metadata GC Threshold) 19M->12M(1024M) 21.834ms
[2018-06-03T07:29:55.393+0700][gc,cpu       ] GC(1) User=0.04s Sys=0.01s Real=0.02s
[2018-06-03T07:29:55.393+0700][gc           ] GC(2) Concurrent Cycle
[2018-06-03T07:29:55.393+0700][gc,marking   ] GC(2) Concurrent Clear Claimed Marks
[2018-06-03T07:29:55.393+0700][gc,marking   ] GC(2) Concurrent Clear Claimed Marks 0.040ms
[2018-06-03T07:29:55.393+0700][gc,marking   ] GC(2) Concurrent Scan Root Regions
[2018-06-03T07:29:55.393+0700][gc,marking   ] GC(2) Concurrent Scan Root Regions 0.530ms
[2018-06-03T07:29:55.393+0700][gc,marking   ] GC(2) Concurrent Mark (3.055s)
[2018-06-03T07:29:55.393+0700][gc,marking   ] GC(2) Concurrent Mark From Roots
[2018-06-03T07:29:55.393+0700][gc,task      ] GC(2) Using 1 workers of 1 for marking
[2018-06-03T07:29:55.401+0700][gc,marking   ] GC(2) Concurrent Mark From Roots 7.948ms
[2018-06-03T07:29:55.401+0700][gc,marking   ] GC(2) Concurrent Mark (3.055s, 3.063s) 8.021ms
[2018-06-03T07:29:55.401+0700][gc,start     ] GC(2) Pause Remark
[2018-06-03T07:29:55.405+0700][gc,stringtable] GC(2) Cleaned string and symbol table, strings: 8758 processed, 0 removed, symbols: 69428 processed, 42 removed
[2018-06-03T07:29:55.405+0700][gc            ] GC(2) Pause Remark 12M->12M(1024M) 3.429ms
[2018-06-03T07:29:55.405+0700][gc,cpu        ] GC(2) User=0.01s Sys=0.00s Real=0.00s
[2018-06-03T07:29:55.405+0700][gc,marking    ] GC(2) Concurrent Create Live Data
[2018-06-03T07:29:55.407+0700][gc,marking    ] GC(2) Concurrent Create Live Data 1.602ms
[2018-06-03T07:29:55.407+0700][gc,start      ] GC(2) Pause Cleanup
[2018-06-03T07:29:55.407+0700][gc            ] GC(2) Pause Cleanup 12M->9M(1024M) 0.719ms
[2018-06-03T07:29:55.407+0700][gc,cpu        ] GC(2) User=0.00s Sys=0.00s Real=0.00s
[2018-06-03T07:29:55.407+0700][gc,marking    ] GC(2) Concurrent Complete Cleanup
[2018-06-03T07:29:55.407+0700][gc,marking    ] GC(2) Concurrent Complete Cleanup 0.028ms
[2018-06-03T07:29:55.407+0700][gc,marking    ] GC(2) Concurrent Cleanup for Next Mark
[2018-06-03T07:29:55.423+0700][gc,marking    ] GC(2) Concurrent Cleanup for Next Mark 15.662ms
[2018-06-03T07:29:55.423+0700][gc            ] GC(2) Concurrent Cycle 30.608ms
[2018-06-03T07:29:58.935+0700][gc,heap,exit  ] Heap
[2018-06-03T07:29:58.935+0700][gc,heap,exit  ]  garbage-first heap   total 1048576K, used 28111K [0x0000000780000000, 0x0000000780102000, 0x00000007c0000000)
[2018-06-03T07:29:58.935+0700][gc,heap,exit  ]   region size 1024K, 21 young (21504K), 2 survivors (2048K)
[2018-06-03T07:29:58.935+0700][gc,heap,exit  ]  Metaspace       used 23925K, capacity 24508K, committed 24704K, reserved 1071104K
[2018-06-03T07:29:58.935+0700][gc,heap,exit  ]   class space    used 2966K, capacity 3098K, committed 3200K, reserved 1048576K
