[2018-06-03T06:25:46.018+0700][gc,heap] Heap region size: 1M
[2018-06-03T06:25:46.031+0700][gc     ] Using G1
[2018-06-03T06:25:46.031+0700][gc,heap,coops] Heap address: 0x0000000780000000, size: 1024 MB, Compressed Oops mode: Zero based, Oop shift amount: 3
[2018-06-03T06:25:47.983+0700][gc,start     ] GC(0) Pause Young (G1 Evacuation Pause)
[2018-06-03T06:25:47.983+0700][gc,task      ] GC(0) Using 4 workers of 4 for evacuation
[2018-06-03T06:25:47.997+0700][gc,phases    ] GC(0)   Pre Evacuate Collection Set: 0.0ms
[2018-06-03T06:25:47.997+0700][gc,phases    ] GC(0)   Evacuate Collection Set: 9.4ms
[2018-06-03T06:25:47.997+0700][gc,phases    ] GC(0)   Post Evacuate Collection Set: 4.5ms
[2018-06-03T06:25:47.997+0700][gc,phases    ] GC(0)   Other: 0.2ms
[2018-06-03T06:25:47.997+0700][gc,heap      ] GC(0) Eden regions: 51->0(44)
[2018-06-03T06:25:47.997+0700][gc,heap      ] GC(0) Survivor regions: 0->7(7)
[2018-06-03T06:25:47.998+0700][gc,heap      ] GC(0) Old regions: 0->4
[2018-06-03T06:25:47.998+0700][gc,heap      ] GC(0) Humongous regions: 1->1
[2018-06-03T06:25:47.998+0700][gc,metaspace ] GC(0) Metaspace: 19130K->19130K(1067008K)
[2018-06-03T06:25:47.998+0700][gc           ] GC(0) Pause Young (G1 Evacuation Pause) 52M->11M(1024M) 14.294ms
[2018-06-03T06:25:47.998+0700][gc,cpu       ] GC(0) User=0.03s Sys=0.01s Real=0.01s
[2018-06-03T06:25:48.621+0700][gc,start     ] GC(1) Pause Initial Mark (Metadata GC Threshold)
[2018-06-03T06:25:48.628+0700][gc,task      ] GC(1) Using 4 workers of 4 for evacuation
[2018-06-03T06:25:48.637+0700][gc,phases    ] GC(1)   Pre Evacuate Collection Set: 0.0ms
[2018-06-03T06:25:48.637+0700][gc,phases    ] GC(1)   Evacuate Collection Set: 8.1ms
[2018-06-03T06:25:48.637+0700][gc,phases    ] GC(1)   Post Evacuate Collection Set: 0.9ms
[2018-06-03T06:25:48.637+0700][gc,phases    ] GC(1)   Other: 7.0ms
[2018-06-03T06:25:48.637+0700][gc,heap      ] GC(1) Eden regions: 8->0(49)
[2018-06-03T06:25:48.637+0700][gc,heap      ] GC(1) Survivor regions: 7->2(7)
[2018-06-03T06:25:48.637+0700][gc,heap      ] GC(1) Old regions: 4->10
[2018-06-03T06:25:48.637+0700][gc,heap      ] GC(1) Humongous regions: 1->1
[2018-06-03T06:25:48.637+0700][gc,metaspace ] GC(1) Metaspace: 20653K->20653K(1069056K)
[2018-06-03T06:25:48.637+0700][gc           ] GC(1) Pause Initial Mark (Metadata GC Threshold) 19M->13M(1024M) 16.248ms
[2018-06-03T06:25:48.637+0700][gc,cpu       ] GC(1) User=0.03s Sys=0.00s Real=0.01s
[2018-06-03T06:25:48.637+0700][gc           ] GC(2) Concurrent Cycle
[2018-06-03T06:25:48.637+0700][gc,marking   ] GC(2) Concurrent Clear Claimed Marks
[2018-06-03T06:25:48.637+0700][gc,marking   ] GC(2) Concurrent Clear Claimed Marks 0.040ms
[2018-06-03T06:25:48.637+0700][gc,marking   ] GC(2) Concurrent Scan Root Regions
[2018-06-03T06:25:48.641+0700][gc,marking   ] GC(2) Concurrent Scan Root Regions 3.564ms
[2018-06-03T06:25:48.641+0700][gc,marking   ] GC(2) Concurrent Mark (2.641s)
[2018-06-03T06:25:48.641+0700][gc,marking   ] GC(2) Concurrent Mark From Roots
[2018-06-03T06:25:48.641+0700][gc,task      ] GC(2) Using 1 workers of 1 for marking
[2018-06-03T06:25:48.648+0700][gc,marking   ] GC(2) Concurrent Mark From Roots 6.657ms
[2018-06-03T06:25:48.648+0700][gc,marking   ] GC(2) Concurrent Mark (2.641s, 2.648s) 6.733ms
[2018-06-03T06:25:48.648+0700][gc,start     ] GC(2) Pause Remark
[2018-06-03T06:25:48.652+0700][gc,stringtable] GC(2) Cleaned string and symbol table, strings: 8759 processed, 0 removed, symbols: 69804 processed, 40 removed
[2018-06-03T06:25:48.652+0700][gc            ] GC(2) Pause Remark 13M->13M(1024M) 4.094ms
[2018-06-03T06:25:48.652+0700][gc,cpu        ] GC(2) User=0.01s Sys=0.01s Real=0.01s
[2018-06-03T06:25:48.652+0700][gc,marking    ] GC(2) Concurrent Create Live Data
[2018-06-03T06:25:48.654+0700][gc,marking    ] GC(2) Concurrent Create Live Data 1.761ms
[2018-06-03T06:25:48.654+0700][gc,start      ] GC(2) Pause Cleanup
[2018-06-03T06:25:48.654+0700][gc            ] GC(2) Pause Cleanup 13M->10M(1024M) 0.517ms
[2018-06-03T06:25:48.654+0700][gc,cpu        ] GC(2) User=0.00s Sys=0.00s Real=0.00s
[2018-06-03T06:25:48.654+0700][gc,marking    ] GC(2) Concurrent Complete Cleanup
[2018-06-03T06:25:48.654+0700][gc,marking    ] GC(2) Concurrent Complete Cleanup 0.028ms
[2018-06-03T06:25:48.654+0700][gc,marking    ] GC(2) Concurrent Cleanup for Next Mark
[2018-06-03T06:25:48.666+0700][gc,marking    ] GC(2) Concurrent Cleanup for Next Mark 11.537ms
[2018-06-03T06:25:48.666+0700][gc            ] GC(2) Concurrent Cycle 28.866ms
[2018-06-03T06:25:51.139+0700][gc,heap,exit  ] Heap
[2018-06-03T06:25:51.139+0700][gc,heap,exit  ]  garbage-first heap   total 1048576K, used 28672K [0x0000000780000000, 0x0000000780102000, 0x00000007c0000000)
[2018-06-03T06:25:51.139+0700][gc,heap,exit  ]   region size 1024K, 21 young (21504K), 2 survivors (2048K)
[2018-06-03T06:25:51.139+0700][gc,heap,exit  ]  Metaspace       used 23917K, capacity 24520K, committed 24704K, reserved 1071104K
[2018-06-03T06:25:51.139+0700][gc,heap,exit  ]   class space    used 2966K, capacity 3098K, committed 3200K, reserved 1048576K
