[2018-06-03T07:30:10.772+0700][gc,heap] Heap region size: 1M
[2018-06-03T07:30:10.785+0700][gc     ] Using G1
[2018-06-03T07:30:10.785+0700][gc,heap,coops] Heap address: 0x0000000780000000, size: 1024 MB, Compressed Oops mode: Zero based, Oop shift amount: 3
[2018-06-03T07:30:11.905+0700][gc,start     ] GC(0) Pause Young (G1 Evacuation Pause)
[2018-06-03T07:30:11.905+0700][gc,task      ] GC(0) Using 4 workers of 4 for evacuation
[2018-06-03T07:30:11.918+0700][gc,phases    ] GC(0)   Pre Evacuate Collection Set: 0.0ms
[2018-06-03T07:30:11.918+0700][gc,phases    ] GC(0)   Evacuate Collection Set: 8.7ms
[2018-06-03T07:30:11.918+0700][gc,phases    ] GC(0)   Post Evacuate Collection Set: 4.7ms
[2018-06-03T07:30:11.918+0700][gc,phases    ] GC(0)   Other: 0.2ms
[2018-06-03T07:30:11.918+0700][gc,heap      ] GC(0) Eden regions: 51->0(44)
[2018-06-03T07:30:11.918+0700][gc,heap      ] GC(0) Survivor regions: 0->7(7)
[2018-06-03T07:30:11.918+0700][gc,heap      ] GC(0) Old regions: 0->4
[2018-06-03T07:30:11.918+0700][gc,heap      ] GC(0) Humongous regions: 1->1
[2018-06-03T07:30:11.918+0700][gc,metaspace ] GC(0) Metaspace: 19109K->19109K(1067008K)
[2018-06-03T07:30:11.918+0700][gc           ] GC(0) Pause Young (G1 Evacuation Pause) 52M->11M(1024M) 13.699ms
[2018-06-03T07:30:11.918+0700][gc,cpu       ] GC(0) User=0.03s Sys=0.01s Real=0.01s
[2018-06-03T07:30:12.351+0700][gc,start     ] GC(1) Pause Initial Mark (Metadata GC Threshold)
[2018-06-03T07:30:12.357+0700][gc,task      ] GC(1) Using 4 workers of 4 for evacuation
[2018-06-03T07:30:12.372+0700][gc,phases    ] GC(1)   Pre Evacuate Collection Set: 0.0ms
[2018-06-03T07:30:12.372+0700][gc,phases    ] GC(1)   Evacuate Collection Set: 13.9ms
[2018-06-03T07:30:12.372+0700][gc,phases    ] GC(1)   Post Evacuate Collection Set: 1.1ms
[2018-06-03T07:30:12.372+0700][gc,phases    ] GC(1)   Other: 6.5ms
[2018-06-03T07:30:12.372+0700][gc,heap      ] GC(1) Eden regions: 8->0(49)
[2018-06-03T07:30:12.372+0700][gc,heap      ] GC(1) Survivor regions: 7->2(7)
[2018-06-03T07:30:12.372+0700][gc,heap      ] GC(1) Old regions: 4->10
[2018-06-03T07:30:12.372+0700][gc,heap      ] GC(1) Humongous regions: 1->1
[2018-06-03T07:30:12.372+0700][gc,metaspace ] GC(1) Metaspace: 20642K->20642K(1069056K)
[2018-06-03T07:30:12.372+0700][gc           ] GC(1) Pause Initial Mark (Metadata GC Threshold) 19M->12M(1024M) 21.568ms
[2018-06-03T07:30:12.372+0700][gc,cpu       ] GC(1) User=0.04s Sys=0.01s Real=0.02s
[2018-06-03T07:30:12.372+0700][gc           ] GC(2) Concurrent Cycle
[2018-06-03T07:30:12.372+0700][gc,marking   ] GC(2) Concurrent Clear Claimed Marks
[2018-06-03T07:30:12.372+0700][gc,marking   ] GC(2) Concurrent Clear Claimed Marks 0.034ms
[2018-06-03T07:30:12.372+0700][gc,marking   ] GC(2) Concurrent Scan Root Regions
[2018-06-03T07:30:12.375+0700][gc,marking   ] GC(2) Concurrent Scan Root Regions 2.457ms
[2018-06-03T07:30:12.375+0700][gc,marking   ] GC(2) Concurrent Mark (1.621s)
[2018-06-03T07:30:12.375+0700][gc,marking   ] GC(2) Concurrent Mark From Roots
[2018-06-03T07:30:12.375+0700][gc,task      ] GC(2) Using 1 workers of 1 for marking
[2018-06-03T07:30:12.382+0700][gc,marking   ] GC(2) Concurrent Mark From Roots 6.686ms
[2018-06-03T07:30:12.382+0700][gc,marking   ] GC(2) Concurrent Mark (1.621s, 1.627s) 6.749ms
[2018-06-03T07:30:12.382+0700][gc,start     ] GC(2) Pause Remark
[2018-06-03T07:30:12.386+0700][gc,stringtable] GC(2) Cleaned string and symbol table, strings: 8785 processed, 0 removed, symbols: 70027 processed, 42 removed
[2018-06-03T07:30:12.386+0700][gc            ] GC(2) Pause Remark 13M->13M(1024M) 3.329ms
[2018-06-03T07:30:12.386+0700][gc,cpu        ] GC(2) User=0.01s Sys=0.00s Real=0.00s
[2018-06-03T07:30:12.386+0700][gc,marking    ] GC(2) Concurrent Create Live Data
[2018-06-03T07:30:12.387+0700][gc,marking    ] GC(2) Concurrent Create Live Data 1.625ms
[2018-06-03T07:30:12.387+0700][gc,start      ] GC(2) Pause Cleanup
[2018-06-03T07:30:12.388+0700][gc            ] GC(2) Pause Cleanup 13M->10M(1024M) 0.609ms
[2018-06-03T07:30:12.388+0700][gc,cpu        ] GC(2) User=0.00s Sys=0.00s Real=0.00s
[2018-06-03T07:30:12.388+0700][gc,marking    ] GC(2) Concurrent Complete Cleanup
[2018-06-03T07:30:12.388+0700][gc,marking    ] GC(2) Concurrent Complete Cleanup 0.028ms
[2018-06-03T07:30:12.388+0700][gc,marking    ] GC(2) Concurrent Cleanup for Next Mark
[2018-06-03T07:30:12.399+0700][gc,marking    ] GC(2) Concurrent Cleanup for Next Mark 11.254ms
[2018-06-03T07:30:12.400+0700][gc            ] GC(2) Concurrent Cycle 27.165ms
[2018-06-03T07:30:15.733+0700][gc,heap,exit  ] Heap
[2018-06-03T07:30:15.733+0700][gc,heap,exit  ]  garbage-first heap   total 1048576K, used 28274K [0x0000000780000000, 0x0000000780102000, 0x00000007c0000000)
[2018-06-03T07:30:15.733+0700][gc,heap,exit  ]   region size 1024K, 21 young (21504K), 2 survivors (2048K)
[2018-06-03T07:30:15.733+0700][gc,heap,exit  ]  Metaspace       used 23910K, capacity 24512K, committed 24704K, reserved 1071104K
[2018-06-03T07:30:15.733+0700][gc,heap,exit  ]   class space    used 2968K, capacity 3098K, committed 3200K, reserved 1048576K
