[2018-06-01T12:50:58.476+0700][gc,heap] Heap region size: 1M
[2018-06-01T12:50:58.484+0700][gc     ] Using G1
[2018-06-01T12:50:58.484+0700][gc,heap,coops] Heap address: 0x00000007a0000000, size: 512 MB, Compressed Oops mode: Zero based, Oop shift amount: 3
[2018-06-01T12:51:10.846+0700][gc,start     ] GC(0) Pause Young (G1 Evacuation Pause)
[2018-06-01T12:51:10.846+0700][gc,task      ] GC(0) Using 4 workers of 4 for evacuation
[2018-06-01T12:51:10.860+0700][gc,phases    ] GC(0)   Pre Evacuate Collection Set: 0.0ms
[2018-06-01T12:51:10.860+0700][gc,phases    ] GC(0)   Evacuate Collection Set: 11.2ms
[2018-06-01T12:51:10.860+0700][gc,phases    ] GC(0)   Post Evacuate Collection Set: 2.1ms
[2018-06-01T12:51:10.860+0700][gc,phases    ] GC(0)   Other: 0.2ms
[2018-06-01T12:51:10.860+0700][gc,heap      ] GC(0) Eden regions: 25->0(21)
[2018-06-01T12:51:10.860+0700][gc,heap      ] GC(0) Survivor regions: 0->4(4)
[2018-06-01T12:51:10.860+0700][gc,heap      ] GC(0) Old regions: 0->3
[2018-06-01T12:51:10.860+0700][gc,heap      ] GC(0) Humongous regions: 1->1
[2018-06-01T12:51:10.860+0700][gc,metaspace ] GC(0) Metaspace: 14295K->14295K(1062912K)
[2018-06-01T12:51:10.860+0700][gc           ] GC(0) Pause Young (G1 Evacuation Pause) 26M->7M(512M) 13.695ms
[2018-06-01T12:51:10.860+0700][gc,cpu       ] GC(0) User=0.03s Sys=0.00s Real=0.02s
[2018-06-01T17:55:41.186+0700][gc,start     ] GC(1) Pause Young (G1 Evacuation Pause)
[2018-06-01T17:55:41.192+0700][gc,task      ] GC(1) Using 4 workers of 4 for evacuation
[2018-06-01T17:55:41.288+0700][gc,mmu       ] GC(1) MMU target violated: 21.0ms (20.0ms/21.0ms)
[2018-06-01T17:55:41.288+0700][gc,phases    ] GC(1)   Pre Evacuate Collection Set: 8.2ms
[2018-06-01T17:55:41.288+0700][gc,phases    ] GC(1)   Evacuate Collection Set: 82.2ms
[2018-06-01T17:55:41.288+0700][gc,phases    ] GC(1)   Post Evacuate Collection Set: 0.7ms
[2018-06-01T17:55:41.288+0700][gc,phases    ] GC(1)   Other: 11.2ms
[2018-06-01T17:55:41.288+0700][gc,heap      ] GC(1) Eden regions: 21->0(24)
[2018-06-01T17:55:41.288+0700][gc,heap      ] GC(1) Survivor regions: 4->1(4)
[2018-06-01T17:55:41.288+0700][gc,heap      ] GC(1) Old regions: 3->7
[2018-06-01T17:55:41.288+0700][gc,heap      ] GC(1) Humongous regions: 1->1
[2018-06-01T17:55:41.288+0700][gc,metaspace ] GC(1) Metaspace: 14659K->14659K(1062912K)
[2018-06-01T17:55:41.288+0700][gc           ] GC(1) Pause Young (G1 Evacuation Pause) 28M->8M(512M) 102.258ms
[2018-06-01T17:55:41.288+0700][gc,cpu       ] GC(1) User=0.03s Sys=0.08s Real=0.10s
[2018-06-01T23:49:47.830+0700][gc,start     ] GC(2) Pause Young (G1 Evacuation Pause)
[2018-06-01T23:49:47.833+0700][gc,task      ] GC(2) Using 4 workers of 4 for evacuation
[2018-06-01T23:49:47.850+0700][gc,phases    ] GC(2)   Pre Evacuate Collection Set: 1.5ms
[2018-06-01T23:49:47.850+0700][gc,phases    ] GC(2)   Evacuate Collection Set: 13.9ms
[2018-06-01T23:49:47.850+0700][gc,phases    ] GC(2)   Post Evacuate Collection Set: 0.8ms
[2018-06-01T23:49:47.850+0700][gc,phases    ] GC(2)   Other: 3.9ms
[2018-06-01T23:49:47.850+0700][gc,heap      ] GC(2) Eden regions: 24->0(24)
[2018-06-01T23:49:47.850+0700][gc,heap      ] GC(2) Survivor regions: 1->1(4)
[2018-06-01T23:49:47.850+0700][gc,heap      ] GC(2) Old regions: 7->7
[2018-06-01T23:49:47.850+0700][gc,heap      ] GC(2) Humongous regions: 1->1
[2018-06-01T23:49:47.850+0700][gc,metaspace ] GC(2) Metaspace: 14675K->14675K(1062912K)
[2018-06-01T23:49:47.850+0700][gc           ] GC(2) Pause Young (G1 Evacuation Pause) 32M->7M(512M) 20.195ms
[2018-06-01T23:49:47.850+0700][gc,cpu       ] GC(2) User=0.02s Sys=0.03s Real=0.02s
[2018-06-02T18:48:27.643+0700][gc,start     ] GC(3) Pause Young (G1 Evacuation Pause)
[2018-06-02T18:48:27.646+0700][gc,task      ] GC(3) Using 4 workers of 4 for evacuation
[2018-06-02T18:48:27.699+0700][gc,mmu       ] GC(3) MMU target violated: 21.0ms (20.0ms/21.0ms)
[2018-06-02T18:48:27.699+0700][gc,phases    ] GC(3)   Pre Evacuate Collection Set: 7.6ms
[2018-06-02T18:48:27.699+0700][gc,phases    ] GC(3)   Evacuate Collection Set: 40.3ms
[2018-06-02T18:48:27.699+0700][gc,phases    ] GC(3)   Post Evacuate Collection Set: 0.6ms
[2018-06-02T18:48:27.701+0700][gc,phases    ] GC(3)   Other: 10.4ms
[2018-06-02T18:48:27.701+0700][gc,heap      ] GC(3) Eden regions: 24->0(24)
[2018-06-02T18:48:27.701+0700][gc,heap      ] GC(3) Survivor regions: 1->1(4)
[2018-06-02T18:48:27.701+0700][gc,heap      ] GC(3) Old regions: 7->7
[2018-06-02T18:48:27.701+0700][gc,heap      ] GC(3) Humongous regions: 1->1
[2018-06-02T18:48:27.701+0700][gc,metaspace ] GC(3) Metaspace: 14721K->14721K(1062912K)
[2018-06-02T18:48:27.702+0700][gc           ] GC(3) Pause Young (G1 Evacuation Pause) 31M->7M(512M) 58.837ms
[2018-06-02T18:48:27.702+0700][gc,cpu       ] GC(3) User=0.02s Sys=0.03s Real=0.06s
[2018-06-02T22:59:21.956+0700][gc,heap,exit ] Heap
[2018-06-02T22:59:21.963+0700][gc,heap,exit ]  garbage-first heap   total 524288K, used 20388K [0x00000007a0000000, 0x00000007a0101000, 0x00000007c0000000)
[2018-06-02T22:59:21.963+0700][gc,heap,exit ]   region size 1024K, 14 young (14336K), 1 survivors (1024K)
[2018-06-02T22:59:21.963+0700][gc,heap,exit ]  Metaspace       used 14777K, capacity 15296K, committed 15488K, reserved 1062912K
[2018-06-02T22:59:21.963+0700][gc,heap,exit ]   class space    used 1486K, capacity 1613K, committed 1664K, reserved 1048576K
