[2018-06-01T12:49:28.595+0700][gc,heap] Heap region size: 1M
[2018-06-01T12:49:28.603+0700][gc     ] Using G1
[2018-06-01T12:49:28.603+0700][gc,heap,coops] Heap address: 0x00000007a0000000, size: 512 MB, Compressed Oops mode: Zero based, Oop shift amount: 3
[2018-06-01T12:49:36.006+0700][gc,start     ] GC(0) Pause Young (G1 Evacuation Pause)
[2018-06-01T12:49:36.007+0700][gc,task      ] GC(0) Using 4 workers of 4 for evacuation
[2018-06-01T12:49:36.022+0700][gc,phases    ] GC(0)   Pre Evacuate Collection Set: 0.0ms
[2018-06-01T12:49:36.022+0700][gc,phases    ] GC(0)   Evacuate Collection Set: 14.0ms
[2018-06-01T12:49:36.022+0700][gc,phases    ] GC(0)   Post Evacuate Collection Set: 1.4ms
[2018-06-01T12:49:36.022+0700][gc,phases    ] GC(0)   Other: 0.5ms
[2018-06-01T12:49:36.022+0700][gc,heap      ] GC(0) Eden regions: 25->0(21)
[2018-06-01T12:49:36.022+0700][gc,heap      ] GC(0) Survivor regions: 0->4(4)
[2018-06-01T12:49:36.022+0700][gc,heap      ] GC(0) Old regions: 0->3
[2018-06-01T12:49:36.022+0700][gc,heap      ] GC(0) Humongous regions: 1->1
[2018-06-01T12:49:36.022+0700][gc,metaspace ] GC(0) Metaspace: 14241K->14241K(1062912K)
[2018-06-01T12:49:36.022+0700][gc           ] GC(0) Pause Young (G1 Evacuation Pause) 26M->7M(512M) 16.144ms
[2018-06-01T12:49:36.023+0700][gc,cpu       ] GC(0) User=0.04s Sys=0.01s Real=0.02s
[2018-06-01T12:50:22.911+0700][gc,heap,exit ] Heap
[2018-06-01T12:50:22.913+0700][gc,heap,exit ]  garbage-first heap   total 524288K, used 8932K [0x00000007a0000000, 0x00000007a0101000, 0x00000007c0000000)
[2018-06-01T12:50:22.913+0700][gc,heap,exit ]   region size 1024K, 6 young (6144K), 4 survivors (4096K)
[2018-06-01T12:50:22.913+0700][gc,heap,exit ]  Metaspace       used 14350K, capacity 14876K, committed 14976K, reserved 1062912K
[2018-06-01T12:50:22.913+0700][gc,heap,exit ]   class space    used 1474K, capacity 1581K, committed 1664K, reserved 1048576K
