[2018-06-03T02:34:44.703+0700][gc,heap] Heap region size: 1M
[2018-06-03T02:34:44.711+0700][gc     ] Using G1
[2018-06-03T02:34:44.711+0700][gc,heap,coops] Heap address: 0x00000007a0000000, size: 512 MB, Compressed Oops mode: Zero based, Oop shift amount: 3
[2018-06-03T02:34:51.034+0700][gc,start     ] GC(0) Pause Young (G1 Evacuation Pause)
[2018-06-03T02:34:51.035+0700][gc,task      ] GC(0) Using 4 workers of 4 for evacuation
[2018-06-03T02:34:51.046+0700][gc,phases    ] GC(0)   Pre Evacuate Collection Set: 0.0ms
[2018-06-03T02:34:51.046+0700][gc,phases    ] GC(0)   Evacuate Collection Set: 9.2ms
[2018-06-03T02:34:51.046+0700][gc,phases    ] GC(0)   Post Evacuate Collection Set: 1.7ms
[2018-06-03T02:34:51.046+0700][gc,phases    ] GC(0)   Other: 0.2ms
[2018-06-03T02:34:51.046+0700][gc,heap      ] GC(0) Eden regions: 25->0(21)
[2018-06-03T02:34:51.046+0700][gc,heap      ] GC(0) Survivor regions: 0->4(4)
[2018-06-03T02:34:51.046+0700][gc,heap      ] GC(0) Old regions: 0->3
[2018-06-03T02:34:51.046+0700][gc,heap      ] GC(0) Humongous regions: 1->1
[2018-06-03T02:34:51.046+0700][gc,metaspace ] GC(0) Metaspace: 14193K->14193K(1062912K)
[2018-06-03T02:34:51.046+0700][gc           ] GC(0) Pause Young (G1 Evacuation Pause) 26M->7M(512M) 11.294ms
[2018-06-03T02:34:51.046+0700][gc,cpu       ] GC(0) User=0.03s Sys=0.00s Real=0.01s
[2018-06-03T05:26:52.257+0700][gc,heap,exit ] Heap
[2018-06-03T05:26:52.261+0700][gc,heap,exit ]  garbage-first heap   total 524288K, used 23511K [0x00000007a0000000, 0x00000007a0101000, 0x00000007c0000000)
[2018-06-03T05:26:52.261+0700][gc,heap,exit ]   region size 1024K, 20 young (20480K), 4 survivors (4096K)
[2018-06-03T05:26:52.261+0700][gc,heap,exit ]  Metaspace       used 14566K, capacity 15068K, committed 15232K, reserved 1062912K
[2018-06-03T05:26:52.261+0700][gc,heap,exit ]   class space    used 1476K, capacity 1581K, committed 1664K, reserved 1048576K
