[2018-06-01T00:13:39.841+0700][gc,heap] Heap region size: 1M
[2018-06-01T00:13:39.849+0700][gc     ] Using G1
[2018-06-01T00:13:39.849+0700][gc,heap,coops] Heap address: 0x00000007a0000000, size: 512 MB, Compressed Oops mode: Zero based, Oop shift amount: 3
[2018-06-01T00:14:02.229+0700][gc,start     ] GC(0) Pause Young (G1 Evacuation Pause)
[2018-06-01T00:14:02.229+0700][gc,task      ] GC(0) Using 4 workers of 4 for evacuation
[2018-06-01T00:14:02.252+0700][gc,mmu       ] GC(0) MMU target violated: 21.0ms (20.0ms/21.0ms)
[2018-06-01T00:14:02.252+0700][gc,phases    ] GC(0)   Pre Evacuate Collection Set: 0.1ms
[2018-06-01T00:14:02.252+0700][gc,phases    ] GC(0)   Evacuate Collection Set: 18.7ms
[2018-06-01T00:14:02.252+0700][gc,phases    ] GC(0)   Post Evacuate Collection Set: 4.1ms
[2018-06-01T00:14:02.252+0700][gc,phases    ] GC(0)   Other: 0.3ms
[2018-06-01T00:14:02.252+0700][gc,heap      ] GC(0) Eden regions: 25->0(21)
[2018-06-01T00:14:02.252+0700][gc,heap      ] GC(0) Survivor regions: 0->4(4)
[2018-06-01T00:14:02.252+0700][gc,heap      ] GC(0) Old regions: 0->3
[2018-06-01T00:14:02.252+0700][gc,heap      ] GC(0) Humongous regions: 1->1
[2018-06-01T00:14:02.252+0700][gc,metaspace ] GC(0) Metaspace: 14313K->14313K(1062912K)
[2018-06-01T00:14:02.252+0700][gc           ] GC(0) Pause Young (G1 Evacuation Pause) 26M->7M(512M) 23.343ms
[2018-06-01T00:14:02.252+0700][gc,cpu       ] GC(0) User=0.03s Sys=0.00s Real=0.03s
[2018-06-01T05:00:55.511+0700][gc,start     ] GC(1) Pause Young (G1 Evacuation Pause)
[2018-06-01T05:00:55.516+0700][gc,task      ] GC(1) Using 4 workers of 4 for evacuation
[2018-06-01T05:00:55.537+0700][gc,mmu       ] GC(1) MMU target violated: 21.0ms (20.0ms/21.0ms)
[2018-06-01T05:00:55.537+0700][gc,phases    ] GC(1)   Pre Evacuate Collection Set: 1.4ms
[2018-06-01T05:00:55.537+0700][gc,phases    ] GC(1)   Evacuate Collection Set: 19.4ms
[2018-06-01T05:00:55.537+0700][gc,phases    ] GC(1)   Post Evacuate Collection Set: 0.4ms
[2018-06-01T05:00:55.537+0700][gc,phases    ] GC(1)   Other: 5.4ms
[2018-06-01T05:00:55.537+0700][gc,heap      ] GC(1) Eden regions: 21->0(24)
[2018-06-01T05:00:55.537+0700][gc,heap      ] GC(1) Survivor regions: 4->1(4)
[2018-06-01T05:00:55.538+0700][gc,heap      ] GC(1) Old regions: 3->7
[2018-06-01T05:00:55.538+0700][gc,heap      ] GC(1) Humongous regions: 1->1
[2018-06-01T05:00:55.538+0700][gc,metaspace ] GC(1) Metaspace: 14639K->14639K(1062912K)
[2018-06-01T05:00:55.538+0700][gc           ] GC(1) Pause Young (G1 Evacuation Pause) 28M->8M(512M) 26.635ms
[2018-06-01T05:00:55.538+0700][gc,cpu       ] GC(1) User=0.04s Sys=0.04s Real=0.02s
[2018-06-01T10:13:04.033+0700][gc,start     ] GC(2) Pause Young (G1 Evacuation Pause)
[2018-06-01T10:13:04.036+0700][gc,task      ] GC(2) Using 4 workers of 4 for evacuation
[2018-06-01T10:13:04.048+0700][gc,phases    ] GC(2)   Pre Evacuate Collection Set: 1.5ms
[2018-06-01T10:13:04.048+0700][gc,phases    ] GC(2)   Evacuate Collection Set: 9.7ms
[2018-06-01T10:13:04.048+0700][gc,phases    ] GC(2)   Post Evacuate Collection Set: 0.3ms
[2018-06-01T10:13:04.048+0700][gc,phases    ] GC(2)   Other: 3.1ms
[2018-06-01T10:13:04.048+0700][gc,heap      ] GC(2) Eden regions: 24->0(24)
[2018-06-01T10:13:04.048+0700][gc,heap      ] GC(2) Survivor regions: 1->1(4)
[2018-06-01T10:13:04.048+0700][gc,heap      ] GC(2) Old regions: 7->7
[2018-06-01T10:13:04.048+0700][gc,heap      ] GC(2) Humongous regions: 1->1
[2018-06-01T10:13:04.048+0700][gc,metaspace ] GC(2) Metaspace: 14639K->14639K(1062912K)
[2018-06-01T10:13:04.048+0700][gc           ] GC(2) Pause Young (G1 Evacuation Pause) 32M->8M(512M) 14.770ms
[2018-06-01T10:13:04.048+0700][gc,cpu       ] GC(2) User=0.01s Sys=0.02s Real=0.01s
[2018-06-01T12:48:41.621+0700][gc,heap,exit ] Heap
[2018-06-01T12:48:41.624+0700][gc,heap,exit ]  garbage-first heap   total 524288K, used 19511K [0x00000007a0000000, 0x00000007a0101000, 0x00000007c0000000)
[2018-06-01T12:48:41.624+0700][gc,heap,exit ]   region size 1024K, 13 young (13312K), 1 survivors (1024K)
[2018-06-01T12:48:41.624+0700][gc,heap,exit ]  Metaspace       used 14679K, capacity 15164K, committed 15232K, reserved 1062912K
[2018-06-01T12:48:41.624+0700][gc,heap,exit ]   class space    used 1484K, capacity 1613K, committed 1664K, reserved 1048576K
