[2018-06-03T01:15:19.816+0700][gc,heap] Heap region size: 1M
[2018-06-03T01:15:19.825+0700][gc     ] Using G1
[2018-06-03T01:15:19.825+0700][gc,heap,coops] Heap address: 0x00000007a0000000, size: 512 MB, Compressed Oops mode: Zero based, Oop shift amount: 3
[2018-06-03T01:15:27.302+0700][gc,start     ] GC(0) Pause Young (G1 Evacuation Pause)
[2018-06-03T01:15:27.302+0700][gc,task      ] GC(0) Using 4 workers of 4 for evacuation
[2018-06-03T01:15:27.311+0700][gc,phases    ] GC(0)   Pre Evacuate Collection Set: 0.0ms
[2018-06-03T01:15:27.311+0700][gc,phases    ] GC(0)   Evacuate Collection Set: 7.9ms
[2018-06-03T01:15:27.311+0700][gc,phases    ] GC(0)   Post Evacuate Collection Set: 1.5ms
[2018-06-03T01:15:27.311+0700][gc,phases    ] GC(0)   Other: 0.2ms
[2018-06-03T01:15:27.312+0700][gc,heap      ] GC(0) Eden regions: 25->0(21)
[2018-06-03T01:15:27.312+0700][gc,heap      ] GC(0) Survivor regions: 0->4(4)
[2018-06-03T01:15:27.312+0700][gc,heap      ] GC(0) Old regions: 0->4
[2018-06-03T01:15:27.312+0700][gc,heap      ] GC(0) Humongous regions: 1->1
[2018-06-03T01:15:27.312+0700][gc,metaspace ] GC(0) Metaspace: 14251K->14251K(1062912K)
[2018-06-03T01:15:27.312+0700][gc           ] GC(0) Pause Young (G1 Evacuation Pause) 26M->8M(512M) 9.764ms
[2018-06-03T01:15:27.312+0700][gc,cpu       ] GC(0) User=0.02s Sys=0.01s Real=0.01s
[2018-06-03T02:30:28.883+0700][gc,heap,exit ] Heap
[2018-06-03T02:30:28.885+0700][gc,heap,exit ]  garbage-first heap   total 524288K, used 15530K [0x00000007a0000000, 0x00000007a0101000, 0x00000007c0000000)
[2018-06-03T02:30:28.886+0700][gc,heap,exit ]   region size 1024K, 12 young (12288K), 4 survivors (4096K)
[2018-06-03T02:30:28.886+0700][gc,heap,exit ]  Metaspace       used 14581K, capacity 15072K, committed 15232K, reserved 1062912K
[2018-06-03T02:30:28.886+0700][gc,heap,exit ]   class space    used 1477K, capacity 1581K, committed 1664K, reserved 1048576K
