[2018-06-01T12:48:43.875+0700][gc,heap] Heap region size: 1M
[2018-06-01T12:48:43.884+0700][gc     ] Using G1
[2018-06-01T12:48:43.884+0700][gc,heap,coops] Heap address: 0x00000007a0000000, size: 512 MB, Compressed Oops mode: Zero based, Oop shift amount: 3
[2018-06-01T12:48:53.388+0700][gc,heap,exit ] Heap
[2018-06-01T12:48:53.388+0700][gc,heap,exit ]  garbage-first heap   total 524288K, used 25600K [0x00000007a0000000, 0x00000007a0101000, 0x00000007c0000000)
[2018-06-01T12:48:53.388+0700][gc,heap,exit ]   region size 1024K, 25 young (25600K), 0 survivors (0K)
[2018-06-01T12:48:53.388+0700][gc,heap,exit ]  Metaspace       used 14185K, capacity 14656K, committed 14976K, reserved 1062912K
[2018-06-01T12:48:53.388+0700][gc,heap,exit ]   class space    used 1459K, capacity 1549K, committed 1664K, reserved 1048576K
